provincia_id,provincia_nombre,grupo_edad_id,grupo_edad_desc,cantidad_casos
2,CABA,11,De 45 a 65 años,1
2,CABA,8,De 20 a 24 años,1
2,CABA,10,De 35 a 44 años,1
2,CABA,6,De 10 a 14 años,1
2,CABA,10,De 35 a 44 años,1
2,CABA,11,De 45 a 65 años,1
2,CABA,11,De 45 a 65 años,2
2,CABA,11,De 45 a 65 años,1
6,Buenos Aires,11,De 45 a 65 años,1
6,Buenos Aires,9,De 25 a 34 años,1
6,Buenos Aires,9,De 25 a 34 años,1
6,Buenos Aires,5,De 5 a 9 años,1
6,Buenos Aires,11,De 45 a 65 años,1
6,Buenos Aires,12,Mayores de 65 años,1
6,Buenos Aires,6,De 10 a 14 años,1
6,Buenos Aires,6,De 10 a 14 años,1
6,Buenos Aires,6,De 10 a 14 años,2
6,Buenos Aires,6,De 10 a 14 años,2
6,Buenos Aires,6,De 10 a 14 años,1
6,Buenos Aires,6,De 10 a 14 años,1
6,Buenos Aires,6,De 10 a 14 años,2
6,Buenos Aires,7,De 15 a 19 años,2
6,Buenos Aires,7,De 15 a 19 años,2
6,Buenos Aires,7,De 15 a 19 años,2
6,Buenos Aires,7,De 15 a 19 años,3
6,Buenos Aires,7,De 15 a 19 años,3
6,Buenos Aires,7,De 15 a 19 años,2
6,Buenos Aires,7,De 15 a 19 años,2
6,Buenos Aires,7,De 15 a 19 años,1
6,Buenos Aires,4,De 2 a 4 años,1
6,Buenos Aires,8,De 20 a 24 años,1
6,Buenos Aires,8,De 20 a 24 años,1
6,Buenos Aires,8,De 20 a 24 años,2
6,Buenos Aires,8,De 20 a 24 años,3
6,Buenos Aires,8,De 20 a 24 años,1
6,Buenos Aires,8,De 20 a 24 años,1
6,Buenos Aires,8,De 20 a 24 años,2
6,Buenos Aires,9,De 25 a 34 años,1
6,Buenos Aires,9,De 25 a 34 años,1
6,Buenos Aires,9,De 25 a 34 años,1
6,Buenos Aires,9,De 25 a 34 años,1
6,Buenos Aires,9,De 25 a 34 años,2
6,Buenos Aires,9,De 25 a 34 años,6
6,Buenos Aires,9,De 25 a 34 años,2
6,Buenos Aires,9,De 25 a 34 años,2
6,Buenos Aires,9,De 25 a 34 años,2
6,Buenos Aires,10,De 35 a 44 años,1
6,Buenos Aires,10,De 35 a 44 años,1
6,Buenos Aires,10,De 35 a 44 años,1
6,Buenos Aires,10,De 35 a 44 años,1
6,Buenos Aires,10,De 35 a 44 años,3
6,Buenos Aires,10,De 35 a 44 años,1
6,Buenos Aires,10,De 35 a 44 años,2
6,Buenos Aires,10,De 35 a 44 años,6
6,Buenos Aires,10,De 35 a 44 años,4
6,Buenos Aires,10,De 35 a 44 años,2
6,Buenos Aires,10,De 35 a 44 años,2
6,Buenos Aires,10,De 35 a 44 años,1
6,Buenos Aires,11,De 45 a 65 años,1
6,Buenos Aires,11,De 45 a 65 años,1
6,Buenos Aires,11,De 45 a 65 años,1
6,Buenos Aires,11,De 45 a 65 años,3
6,Buenos Aires,11,De 45 a 65 años,4
6,Buenos Aires,11,De 45 a 65 años,3
6,Buenos Aires,11,De 45 a 65 años,4
6,Buenos Aires,11,De 45 a 65 años,2
6,Buenos Aires,11,De 45 a 65 años,4
6,Buenos Aires,11,De 45 a 65 años,5
6,Buenos Aires,11,De 45 a 65 años,3
6,Buenos Aires,11,De 45 a 65 años,3
6,Buenos Aires,11,De 45 a 65 años,1
6,Buenos Aires,5,De 5 a 9 años,1
6,Buenos Aires,5,De 5 a 9 años,1
6,Buenos Aires,5,De 5 a 9 años,1
6,Buenos Aires,5,De 5 a 9 años,1
6,Buenos Aires,12,Mayores de 65 años,1
6,Buenos Aires,12,Mayores de 65 años,1
6,Buenos Aires,12,Mayores de 65 años,2
6,Buenos Aires,12,Mayores de 65 años,2
6,Buenos Aires,12,Mayores de 65 años,2
6,Buenos Aires,12,Mayores de 65 años,1
6,Buenos Aires,8,De 20 a 24 años,1
6,Buenos Aires,11,De 45 a 65 años,1
6,Buenos Aires,11,De 45 a 65 años,1
6,Buenos Aires,6,De 10 a 14 años,1
6,Buenos Aires,6,De 10 a 14 años,1
6,Buenos Aires,8,De 20 a 24 años,2
6,Buenos Aires,9,De 25 a 34 años,1
6,Buenos Aires,9,De 25 a 34 años,1
6,Buenos Aires,10,De 35 a 44 años,2
6,Buenos Aires,10,De 35 a 44 años,1
6,Buenos Aires,11,De 45 a 65 años,1
6,Buenos Aires,11,De 45 a 65 años,1
10,Catamarca,11,De 45 a 65 años,1
10,Catamarca,11,De 45 a 65 años,1
14,Córdoba,8,De 20 a 24 años,1
14,Córdoba,8,De 20 a 24 años,1
14,Córdoba,9,De 25 a 34 años,1
14,Córdoba,9,De 25 a 34 años,1
14,Córdoba,11,De 45 a 65 años,1
14,Córdoba,8,De 20 a 24 años,1
14,Córdoba,10,De 35 a 44 años,1
14,Córdoba,10,De 35 a 44 años,1
18,Corrientes,10,De 35 a 44 años,1
50,Mendoza,11,De 45 a 65 años,1
50,Mendoza,9,De 25 a 34 años,1
50,Mendoza,10,De 35 a 44 años,1
54,Misiones,9,De 25 a 34 años,1
66,Salta,11,De 45 a 65 años,1
66,Salta,6,De 10 a 14 años,1
66,Salta,6,De 10 a 14 años,1
66,Salta,6,De 10 a 14 años,5
66,Salta,6,De 10 a 14 años,4
66,Salta,6,De 10 a 14 años,3
66,Salta,6,De 10 a 14 años,10
66,Salta,6,De 10 a 14 años,8
66,Salta,6,De 10 a 14 años,9
66,Salta,6,De 10 a 14 años,10
66,Salta,6,De 10 a 14 años,4
66,Salta,6,De 10 a 14 años,4
66,Salta,6,De 10 a 14 años,3
66,Salta,6,De 10 a 14 años,1
66,Salta,6,De 10 a 14 años,1
66,Salta,3,De 13 a 24 meses,1
66,Salta,3,De 13 a 24 meses,1
66,Salta,7,De 15 a 19 años,2
66,Salta,7,De 15 a 19 años,2
66,Salta,7,De 15 a 19 años,2
66,Salta,7,De 15 a 19 años,2
66,Salta,7,De 15 a 19 años,6
66,Salta,7,De 15 a 19 años,9
66,Salta,7,De 15 a 19 años,10
66,Salta,7,De 15 a 19 años,6
66,Salta,7,De 15 a 19 años,5
66,Salta,7,De 15 a 19 años,4
66,Salta,7,De 15 a 19 años,1
66,Salta,4,De 2 a 4 años,3
66,Salta,4,De 2 a 4 años,1
66,Salta,4,De 2 a 4 años,2
66,Salta,4,De 2 a 4 años,4
66,Salta,4,De 2 a 4 años,2
66,Salta,4,De 2 a 4 años,1
66,Salta,8,De 20 a 24 años,1
66,Salta,8,De 20 a 24 años,3
66,Salta,8,De 20 a 24 años,3
66,Salta,8,De 20 a 24 años,2
66,Salta,8,De 20 a 24 años,11
66,Salta,8,De 20 a 24 años,9
66,Salta,8,De 20 a 24 años,8
66,Salta,8,De 20 a 24 años,3
66,Salta,8,De 20 a 24 años,6
66,Salta,8,De 20 a 24 años,8
66,Salta,8,De 20 a 24 años,3
66,Salta,8,De 20 a 24 años,3
66,Salta,9,De 25 a 34 años,1
66,Salta,9,De 25 a 34 años,1
66,Salta,9,De 25 a 34 años,4
66,Salta,9,De 25 a 34 años,7
66,Salta,9,De 25 a 34 años,7
66,Salta,9,De 25 a 34 años,14
66,Salta,9,De 25 a 34 años,11
66,Salta,9,De 25 a 34 años,13
66,Salta,9,De 25 a 34 años,15
66,Salta,9,De 25 a 34 años,13
66,Salta,9,De 25 a 34 años,4
66,Salta,9,De 25 a 34 años,4
66,Salta,9,De 25 a 34 años,5
66,Salta,9,De 25 a 34 años,1
66,Salta,10,De 35 a 44 años,1
66,Salta,10,De 35 a 44 años,1
66,Salta,10,De 35 a 44 años,1
66,Salta,10,De 35 a 44 años,11
66,Salta,10,De 35 a 44 años,8
66,Salta,10,De 35 a 44 años,11
66,Salta,10,De 35 a 44 años,9
66,Salta,10,De 35 a 44 años,19
66,Salta,10,De 35 a 44 años,13
66,Salta,10,De 35 a 44 años,9
66,Salta,10,De 35 a 44 años,4
66,Salta,10,De 35 a 44 años,1
66,Salta,10,De 35 a 44 años,4
66,Salta,10,De 35 a 44 años,1
66,Salta,11,De 45 a 65 años,1
66,Salta,11,De 45 a 65 años,1
66,Salta,11,De 45 a 65 años,2
66,Salta,11,De 45 a 65 años,10
66,Salta,11,De 45 a 65 años,4
66,Salta,11,De 45 a 65 años,6
66,Salta,11,De 45 a 65 años,10
66,Salta,11,De 45 a 65 años,16
66,Salta,11,De 45 a 65 años,14
66,Salta,11,De 45 a 65 años,11
66,Salta,11,De 45 a 65 años,12
66,Salta,11,De 45 a 65 años,3
66,Salta,11,De 45 a 65 años,1
66,Salta,11,De 45 a 65 años,3
66,Salta,11,De 45 a 65 años,1
66,Salta,5,De 5 a 9 años,1
66,Salta,5,De 5 a 9 años,1
66,Salta,5,De 5 a 9 años,4
66,Salta,5,De 5 a 9 años,7
66,Salta,5,De 5 a 9 años,7
66,Salta,5,De 5 a 9 años,5
66,Salta,5,De 5 a 9 años,4
66,Salta,5,De 5 a 9 años,7
66,Salta,5,De 5 a 9 años,5
66,Salta,5,De 5 a 9 años,2
66,Salta,12,Mayores de 65 años,1
66,Salta,12,Mayores de 65 años,1
66,Salta,12,Mayores de 65 años,4
66,Salta,12,Mayores de 65 años,2
66,Salta,12,Mayores de 65 años,2
66,Salta,12,Mayores de 65 años,3
66,Salta,12,Mayores de 65 años,3
66,Salta,12,Mayores de 65 años,1
66,Salta,12,Mayores de 65 años,1
66,Salta,2,Posneonato (29 hasta 365 dias),1
66,Salta,2,Posneonato (29 hasta 365 dias),1
66,Salta,6,De 10 a 14 años,1
66,Salta,8,De 20 a 24 años,1
66,Salta,9,De 25 a 34 años,1
66,Salta,9,De 25 a 34 años,1
66,Salta,9,De 25 a 34 años,2
66,Salta,9,De 25 a 34 años,1
66,Salta,9,De 25 a 34 años,1
66,Salta,9,De 25 a 34 años,1
66,Salta,11,De 45 a 65 años,1
66,Salta,11,De 45 a 65 años,1
66,Salta,11,De 45 a 65 años,1
66,Salta,5,De 5 a 9 años,1
66,Salta,12,Mayores de 65 años,1
66,Salta,12,Mayores de 65 años,1
66,Salta,12,Mayores de 65 años,1
66,Salta,6,De 10 a 14 años,1
66,Salta,6,De 10 a 14 años,2
66,Salta,7,De 15 a 19 años,1
66,Salta,7,De 15 a 19 años,1
66,Salta,7,De 15 a 19 años,1
66,Salta,7,De 15 a 19 años,1
66,Salta,7,De 15 a 19 años,1
66,Salta,4,De 2 a 4 años,1
66,Salta,8,De 20 a 24 años,1
66,Salta,8,De 20 a 24 años,2
66,Salta,9,De 25 a 34 años,1
66,Salta,9,De 25 a 34 años,2
66,Salta,9,De 25 a 34 años,1
66,Salta,9,De 25 a 34 años,2
66,Salta,9,De 25 a 34 años,1
66,Salta,10,De 35 a 44 años,2
66,Salta,10,De 35 a 44 años,1
66,Salta,10,De 35 a 44 años,1
66,Salta,10,De 35 a 44 años,2
66,Salta,11,De 45 a 65 años,1
66,Salta,11,De 45 a 65 años,1
66,Salta,11,De 45 a 65 años,2
66,Salta,11,De 45 a 65 años,1
66,Salta,11,De 45 a 65 años,4
66,Salta,11,De 45 a 65 años,2
66,Salta,11,De 45 a 65 años,1
66,Salta,12,Mayores de 65 años,1
66,Salta,2,Posneonato (29 hasta 365 dias),1
74,San Luis,9,De 25 a 34 años,1
82,Santa Fe,6,De 10 a 14 años,1
82,Santa Fe,7,De 15 a 19 años,1
82,Santa Fe,8,De 20 a 24 años,1
82,Santa Fe,8,De 20 a 24 años,1
82,Santa Fe,9,De 25 a 34 años,1
82,Santa Fe,9,De 25 a 34 años,1
82,Santa Fe,9,De 25 a 34 años,1
82,Santa Fe,10,De 35 a 44 años,1
82,Santa Fe,10,De 35 a 44 años,1
82,Santa Fe,10,De 35 a 44 años,1
82,Santa Fe,10,De 35 a 44 años,1
82,Santa Fe,10,De 35 a 44 años,1
82,Santa Fe,10,De 35 a 44 años,1
82,Santa Fe,11,De 45 a 65 años,2
82,Santa Fe,11,De 45 a 65 años,1
82,Santa Fe,11,De 45 a 65 años,1
82,Santa Fe,11,De 45 a 65 años,1
82,Santa Fe,12,Mayores de 65 años,1
82,Santa Fe,10,De 35 a 44 años,1
82,Santa Fe,12,Mayores de 65 años,1
82,Santa Fe,8,De 20 a 24 años,1
82,Santa Fe,9,De 25 a 34 años,1
82,Santa Fe,10,De 35 a 44 años,1
82,Santa Fe,10,De 35 a 44 años,1
82,Santa Fe,10,De 35 a 44 años,1
82,Santa Fe,11,De 45 a 65 años,1
82,Santa Fe,9,De 25 a 34 años,1
86,Santiago del Estero,10,De 35 a 44 años,1
86,Santiago del Estero,10,De 35 a 44 años,1
86,Santiago del Estero,11,De 45 a 65 años,1
86,Santiago del Estero,10,De 35 a 44 años,1
22,Chaco,0,Neonato (hasta 28 dias),1
34,Formosa,1,Posneonato (29 hasta 365 dias),1
34,Formosa,1,Posneonato (29 hasta 365 dias),1
34,Formosa,1,Posneonato (29 hasta 365 dias),1
46,La Rioja,1,Posneonato (29 hasta 365 dias),1
54,Misiones,1,Posneonato (29 hasta 365 dias),1
66,Salta,1,Posneonato (29 hasta 365 dias),1
66,Salta,1,Posneonato (29 hasta 365 dias),1
66,Salta,1,Posneonato (29 hasta 365 dias),1
66,Salta,1,Posneonato (29 hasta 365 dias),1
66,Salta,1,Posneonato (29 hasta 365 dias),1
34,Formosa,2,De 13 a 24 meses,1
46,La Rioja,2,De 13 a 24 meses,1
66,Salta,2,De 13 a 24 meses,1
66,Salta,2,De 13 a 24 meses,1
66,Salta,2,De 13 a 24 meses,1
66,Salta,2,De 13 a 24 meses,1
66,Salta,2,De 13 a 24 meses,1
30,Entre Ríos,3,De 2 a 4 anos,1
34,Formosa,3,De 2 a 4 anos,1
34,Formosa,3,De 2 a 4 anos,1
34,Formosa,3,De 2 a 4 anos,1
38,Jujuy,3,De 2 a 4 anos,1
46,La Rioja,3,De 2 a 4 anos,1
46,La Rioja,3,De 2 a 4 anos,2
46,La Rioja,3,De 2 a 4 anos,1
54,Misiones,3,De 2 a 4 anos,2
54,Misiones,3,De 2 a 4 anos,1
66,Salta,3,De 2 a 4 anos,1
66,Salta,3,De 2 a 4 anos,1
66,Salta,3,De 2 a 4 anos,1
66,Salta,3,De 2 a 4 anos,2
66,Salta,3,De 2 a 4 anos,1
66,Salta,3,De 2 a 4 anos,1
66,Salta,3,De 2 a 4 anos,1
66,Salta,3,De 2 a 4 anos,1
66,Salta,3,De 2 a 4 anos,1
66,Salta,3,De 2 a 4 anos,2
66,Salta,3,De 2 a 4 anos,3
66,Salta,3,De 2 a 4 anos,4
66,Salta,3,De 2 a 4 anos,4
66,Salta,3,De 2 a 4 anos,1
66,Salta,3,De 2 a 4 anos,1
66,Salta,3,De 2 a 4 anos,1
66,Salta,3,De 2 a 4 anos,2
6,Buenos Aires,4,De 5 a 9 anos,1
30,Entre Ríos,4,De 5 a 9 anos,1
34,Formosa,4,De 5 a 9 anos,4
34,Formosa,4,De 5 a 9 anos,2
34,Formosa,4,De 5 a 9 anos,2
34,Formosa,4,De 5 a 9 anos,1
34,Formosa,4,De 5 a 9 anos,5
34,Formosa,4,De 5 a 9 anos,2
34,Formosa,4,De 5 a 9 anos,1
38,Jujuy,4,De 5 a 9 anos,1
38,Jujuy,4,De 5 a 9 anos,1
38,Jujuy,4,De 5 a 9 anos,3
38,Jujuy,4,De 5 a 9 anos,2
38,Jujuy,4,De 5 a 9 anos,1
38,Jujuy,4,De 5 a 9 anos,2
38,Jujuy,4,De 5 a 9 anos,1
38,Jujuy,4,De 5 a 9 anos,1
38,Jujuy,4,De 5 a 9 anos,1
38,Jujuy,4,De 5 a 9 anos,1
46,La Rioja,4,De 5 a 9 anos,1
46,La Rioja,4,De 5 a 9 anos,2
46,La Rioja,4,De 5 a 9 anos,2
46,La Rioja,4,De 5 a 9 anos,1
46,La Rioja,4,De 5 a 9 anos,1
46,La Rioja,4,De 5 a 9 anos,4
46,La Rioja,4,De 5 a 9 anos,3
46,La Rioja,4,De 5 a 9 anos,3
46,La Rioja,4,De 5 a 9 anos,4
46,La Rioja,4,De 5 a 9 anos,2
46,La Rioja,4,De 5 a 9 anos,2
54,Misiones,4,De 5 a 9 anos,1
54,Misiones,4,De 5 a 9 anos,1
54,Misiones,4,De 5 a 9 anos,2
66,Salta,4,De 5 a 9 anos,1
66,Salta,4,De 5 a 9 anos,2
66,Salta,4,De 5 a 9 anos,4
66,Salta,4,De 5 a 9 anos,1
66,Salta,4,De 5 a 9 anos,1
66,Salta,4,De 5 a 9 anos,1
66,Salta,4,De 5 a 9 anos,1
66,Salta,4,De 5 a 9 anos,1
66,Salta,4,De 5 a 9 anos,1
66,Salta,4,De 5 a 9 anos,4
66,Salta,4,De 5 a 9 anos,6
66,Salta,4,De 5 a 9 anos,1
66,Salta,4,De 5 a 9 anos,3
66,Salta,4,De 5 a 9 anos,4
66,Salta,4,De 5 a 9 anos,1
66,Salta,4,De 5 a 9 anos,1
66,Salta,4,De 5 a 9 anos,2
66,Salta,4,De 5 a 9 anos,2
66,Salta,4,De 5 a 9 anos,1
66,Salta,4,De 5 a 9 anos,1
66,Salta,4,De 5 a 9 anos,2
66,Salta,4,De 5 a 9 anos,2
66,Salta,4,De 5 a 9 anos,1
66,Salta,4,De 5 a 9 anos,3
66,Salta,4,De 5 a 9 anos,3
66,Salta,4,De 5 a 9 anos,2
66,Salta,4,De 5 a 9 anos,2
66,Salta,4,De 5 a 9 anos,3
66,Salta,4,De 5 a 9 anos,5
66,Salta,4,De 5 a 9 anos,5
66,Salta,4,De 5 a 9 anos,3
66,Salta,4,De 5 a 9 anos,8
66,Salta,4,De 5 a 9 anos,6
66,Salta,4,De 5 a 9 anos,2
66,Salta,4,De 5 a 9 anos,1
66,Salta,4,De 5 a 9 anos,2
66,Salta,4,De 5 a 9 anos,1
66,Salta,4,De 5 a 9 anos,1
66,Salta,4,De 5 a 9 anos,1
66,Salta,4,De 5 a 9 anos,1
74,San Luis,4,De 5 a 9 anos,1
18,Corrientes,5,De 10 a 14 anos,1
30,Entre Ríos,5,De 10 a 14 anos,1
34,Formosa,5,De 10 a 14 anos,1
34,Formosa,5,De 10 a 14 anos,2
34,Formosa,5,De 10 a 14 anos,2
34,Formosa,5,De 10 a 14 anos,2
34,Formosa,5,De 10 a 14 anos,2
34,Formosa,5,De 10 a 14 anos,3
34,Formosa,5,De 10 a 14 anos,3
34,Formosa,5,De 10 a 14 anos,1
38,Jujuy,5,De 10 a 14 anos,2
38,Jujuy,5,De 10 a 14 anos,1
38,Jujuy,5,De 10 a 14 anos,1
38,Jujuy,5,De 10 a 14 anos,2
38,Jujuy,5,De 10 a 14 anos,6
38,Jujuy,5,De 10 a 14 anos,5
38,Jujuy,5,De 10 a 14 anos,1
38,Jujuy,5,De 10 a 14 anos,1
38,Jujuy,5,De 10 a 14 anos,1
38,Jujuy,5,De 10 a 14 anos,1
38,Jujuy,5,De 10 a 14 anos,1
38,Jujuy,5,De 10 a 14 anos,2
38,Jujuy,5,De 10 a 14 anos,1
38,Jujuy,5,De 10 a 14 anos,2
46,La Rioja,5,De 10 a 14 anos,1
46,La Rioja,5,De 10 a 14 anos,1
46,La Rioja,5,De 10 a 14 anos,3
46,La Rioja,5,De 10 a 14 anos,2
46,La Rioja,5,De 10 a 14 anos,5
46,La Rioja,5,De 10 a 14 anos,4
46,La Rioja,5,De 10 a 14 anos,6
46,La Rioja,5,De 10 a 14 anos,7
46,La Rioja,5,De 10 a 14 anos,8
46,La Rioja,5,De 10 a 14 anos,8
46,La Rioja,5,De 10 a 14 anos,6
46,La Rioja,5,De 10 a 14 anos,9
46,La Rioja,5,De 10 a 14 anos,6
46,La Rioja,5,De 10 a 14 anos,2
46,La Rioja,5,De 10 a 14 anos,2
54,Misiones,5,De 10 a 14 anos,1
54,Misiones,5,De 10 a 14 anos,1
54,Misiones,5,De 10 a 14 anos,1
54,Misiones,5,De 10 a 14 anos,2
54,Misiones,5,De 10 a 14 anos,1
54,Misiones,5,De 10 a 14 anos,1
54,Misiones,5,De 10 a 14 anos,1
66,Salta,5,De 10 a 14 anos,1
66,Salta,5,De 10 a 14 anos,1
66,Salta,5,De 10 a 14 anos,3
66,Salta,5,De 10 a 14 anos,2
66,Salta,5,De 10 a 14 anos,1
66,Salta,5,De 10 a 14 anos,1
66,Salta,5,De 10 a 14 anos,1
66,Salta,5,De 10 a 14 anos,1
66,Salta,5,De 10 a 14 anos,2
66,Salta,5,De 10 a 14 anos,3
66,Salta,5,De 10 a 14 anos,1
66,Salta,5,De 10 a 14 anos,2
66,Salta,5,De 10 a 14 anos,5
66,Salta,5,De 10 a 14 anos,2
66,Salta,5,De 10 a 14 anos,4
66,Salta,5,De 10 a 14 anos,9
66,Salta,5,De 10 a 14 anos,9
66,Salta,5,De 10 a 14 anos,1
66,Salta,5,De 10 a 14 anos,2
66,Salta,5,De 10 a 14 anos,5
66,Salta,5,De 10 a 14 anos,1
66,Salta,5,De 10 a 14 anos,1
66,Salta,5,De 10 a 14 anos,1
66,Salta,5,De 10 a 14 anos,1
66,Salta,5,De 10 a 14 anos,4
66,Salta,5,De 10 a 14 anos,1
66,Salta,5,De 10 a 14 anos,2
66,Salta,5,De 10 a 14 anos,1
66,Salta,5,De 10 a 14 anos,1
66,Salta,5,De 10 a 14 anos,3
66,Salta,5,De 10 a 14 anos,4
66,Salta,5,De 10 a 14 anos,8
66,Salta,5,De 10 a 14 anos,9
66,Salta,5,De 10 a 14 anos,5
66,Salta,5,De 10 a 14 anos,8
66,Salta,5,De 10 a 14 anos,17
66,Salta,5,De 10 a 14 anos,15
66,Salta,5,De 10 a 14 anos,16
66,Salta,5,De 10 a 14 anos,8
66,Salta,5,De 10 a 14 anos,2
66,Salta,5,De 10 a 14 anos,5
66,Salta,5,De 10 a 14 anos,3
66,Salta,5,De 10 a 14 anos,1
66,Salta,5,De 10 a 14 anos,1
66,Salta,5,De 10 a 14 anos,1
66,Salta,5,De 10 a 14 anos,3
66,Salta,5,De 10 a 14 anos,2
66,Salta,5,De 10 a 14 anos,2
66,Salta,5,De 10 a 14 anos,1
66,Salta,5,De 10 a 14 anos,1
66,Salta,5,De 10 a 14 anos,1
82,Santa Fe,5,De 10 a 14 anos,1
90,Tucumán,5,De 10 a 14 anos,1
90,Tucumán,5,De 10 a 14 anos,1
90,Tucumán,5,De 10 a 14 anos,1
2,CABA,6,De 15 a 19 anos,1
6,Buenos Aires,6,De 15 a 19 anos,1
14,Córdoba,6,De 15 a 19 anos,1
18,Corrientes,6,De 15 a 19 anos,1
30,Entre Ríos,6,De 15 a 19 anos,1
34,Formosa,6,De 15 a 19 anos,1
34,Formosa,6,De 15 a 19 anos,2
34,Formosa,6,De 15 a 19 anos,2
34,Formosa,6,De 15 a 19 anos,4
34,Formosa,6,De 15 a 19 anos,3
34,Formosa,6,De 15 a 19 anos,2
34,Formosa,6,De 15 a 19 anos,6
34,Formosa,6,De 15 a 19 anos,2
38,Jujuy,6,De 15 a 19 anos,2
38,Jujuy,6,De 15 a 19 anos,1
38,Jujuy,6,De 15 a 19 anos,1
38,Jujuy,6,De 15 a 19 anos,1
38,Jujuy,6,De 15 a 19 anos,3
38,Jujuy,6,De 15 a 19 anos,2
38,Jujuy,6,De 15 a 19 anos,2
38,Jujuy,6,De 15 a 19 anos,2
38,Jujuy,6,De 15 a 19 anos,3
38,Jujuy,6,De 15 a 19 anos,5
38,Jujuy,6,De 15 a 19 anos,1
38,Jujuy,6,De 15 a 19 anos,1
38,Jujuy,6,De 15 a 19 anos,1
38,Jujuy,6,De 15 a 19 anos,1
38,Jujuy,6,De 15 a 19 anos,3
38,Jujuy,6,De 15 a 19 anos,1
38,Jujuy,6,De 15 a 19 anos,2
38,Jujuy,6,De 15 a 19 anos,2
42,La Pampa,6,De 15 a 19 anos,1
46,La Rioja,6,De 15 a 19 anos,1
46,La Rioja,6,De 15 a 19 anos,1
46,La Rioja,6,De 15 a 19 anos,3
46,La Rioja,6,De 15 a 19 anos,1
46,La Rioja,6,De 15 a 19 anos,10
46,La Rioja,6,De 15 a 19 anos,8
46,La Rioja,6,De 15 a 19 anos,4
46,La Rioja,6,De 15 a 19 anos,3
46,La Rioja,6,De 15 a 19 anos,10
46,La Rioja,6,De 15 a 19 anos,11
46,La Rioja,6,De 15 a 19 anos,19
46,La Rioja,6,De 15 a 19 anos,13
46,La Rioja,6,De 15 a 19 anos,7
46,La Rioja,6,De 15 a 19 anos,7
46,La Rioja,6,De 15 a 19 anos,5
46,La Rioja,6,De 15 a 19 anos,3
46,La Rioja,6,De 15 a 19 anos,1
46,La Rioja,6,De 15 a 19 anos,1
46,La Rioja,6,De 15 a 19 anos,1
54,Misiones,6,De 15 a 19 anos,1
54,Misiones,6,De 15 a 19 anos,1
54,Misiones,6,De 15 a 19 anos,1
54,Misiones,6,De 15 a 19 anos,1
54,Misiones,6,De 15 a 19 anos,1
54,Misiones,6,De 15 a 19 anos,1
66,Salta,6,De 15 a 19 anos,1
66,Salta,6,De 15 a 19 anos,4
66,Salta,6,De 15 a 19 anos,3
66,Salta,6,De 15 a 19 anos,1
66,Salta,6,De 15 a 19 anos,1
66,Salta,6,De 15 a 19 anos,2
66,Salta,6,De 15 a 19 anos,4
66,Salta,6,De 15 a 19 anos,2
66,Salta,6,De 15 a 19 anos,1
66,Salta,6,De 15 a 19 anos,1
66,Salta,6,De 15 a 19 anos,2
66,Salta,6,De 15 a 19 anos,5
66,Salta,6,De 15 a 19 anos,3
66,Salta,6,De 15 a 19 anos,6
66,Salta,6,De 15 a 19 anos,2
66,Salta,6,De 15 a 19 anos,2
66,Salta,6,De 15 a 19 anos,1
66,Salta,6,De 15 a 19 anos,2
66,Salta,6,De 15 a 19 anos,2
66,Salta,6,De 15 a 19 anos,1
66,Salta,6,De 15 a 19 anos,1
66,Salta,6,De 15 a 19 anos,1
66,Salta,6,De 15 a 19 anos,3
66,Salta,6,De 15 a 19 anos,2
66,Salta,6,De 15 a 19 anos,2
66,Salta,6,De 15 a 19 anos,3
66,Salta,6,De 15 a 19 anos,1
66,Salta,6,De 15 a 19 anos,5
66,Salta,6,De 15 a 19 anos,5
66,Salta,6,De 15 a 19 anos,3
66,Salta,6,De 15 a 19 anos,3
66,Salta,6,De 15 a 19 anos,5
66,Salta,6,De 15 a 19 anos,3
66,Salta,6,De 15 a 19 anos,6
66,Salta,6,De 15 a 19 anos,1
66,Salta,6,De 15 a 19 anos,1
66,Salta,6,De 15 a 19 anos,13
66,Salta,6,De 15 a 19 anos,7
66,Salta,6,De 15 a 19 anos,13
66,Salta,6,De 15 a 19 anos,5
66,Salta,6,De 15 a 19 anos,6
66,Salta,6,De 15 a 19 anos,2
66,Salta,6,De 15 a 19 anos,3
66,Salta,6,De 15 a 19 anos,1
66,Salta,6,De 15 a 19 anos,1
66,Salta,6,De 15 a 19 anos,1
66,Salta,6,De 15 a 19 anos,2
66,Salta,6,De 15 a 19 anos,2
66,Salta,6,De 15 a 19 anos,1
66,Salta,6,De 15 a 19 anos,2
66,Salta,6,De 15 a 19 anos,1
66,Salta,6,De 15 a 19 anos,2
66,Salta,6,De 15 a 19 anos,1
74,San Luis,6,De 15 a 19 anos,1
82,Santa Fe,6,De 15 a 19 anos,2
82,Santa Fe,6,De 15 a 19 anos,1
82,Santa Fe,6,De 15 a 19 anos,1
82,Santa Fe,6,De 15 a 19 anos,1
82,Santa Fe,6,De 15 a 19 anos,1
82,Santa Fe,6,De 15 a 19 anos,1
82,Santa Fe,6,De 15 a 19 anos,1
90,Tucumán,6,De 15 a 19 anos,1
90,Tucumán,6,De 15 a 19 anos,1
18,Corrientes,7,De 20 a 24 anos,1
34,Formosa,7,De 20 a 24 anos,1
34,Formosa,7,De 20 a 24 anos,1
34,Formosa,7,De 20 a 24 anos,1
34,Formosa,7,De 20 a 24 anos,1
34,Formosa,7,De 20 a 24 anos,1
34,Formosa,7,De 20 a 24 anos,5
34,Formosa,7,De 20 a 24 anos,2
34,Formosa,7,De 20 a 24 anos,1
34,Formosa,7,De 20 a 24 anos,5
34,Formosa,7,De 20 a 24 anos,4
34,Formosa,7,De 20 a 24 anos,1
34,Formosa,7,De 20 a 24 anos,3
34,Formosa,7,De 20 a 24 anos,1
38,Jujuy,7,De 20 a 24 anos,1
38,Jujuy,7,De 20 a 24 anos,1
38,Jujuy,7,De 20 a 24 anos,4
38,Jujuy,7,De 20 a 24 anos,6
38,Jujuy,7,De 20 a 24 anos,7
38,Jujuy,7,De 20 a 24 anos,2
38,Jujuy,7,De 20 a 24 anos,1
38,Jujuy,7,De 20 a 24 anos,2
38,Jujuy,7,De 20 a 24 anos,1
38,Jujuy,7,De 20 a 24 anos,1
38,Jujuy,7,De 20 a 24 anos,1
38,Jujuy,7,De 20 a 24 anos,3
38,Jujuy,7,De 20 a 24 anos,1
38,Jujuy,7,De 20 a 24 anos,2
46,La Rioja,7,De 20 a 24 anos,1
46,La Rioja,7,De 20 a 24 anos,1
46,La Rioja,7,De 20 a 24 anos,1
46,La Rioja,7,De 20 a 24 anos,2
46,La Rioja,7,De 20 a 24 anos,1
46,La Rioja,7,De 20 a 24 anos,1
46,La Rioja,7,De 20 a 24 anos,9
46,La Rioja,7,De 20 a 24 anos,5
46,La Rioja,7,De 20 a 24 anos,4
46,La Rioja,7,De 20 a 24 anos,4
46,La Rioja,7,De 20 a 24 anos,10
46,La Rioja,7,De 20 a 24 anos,15
46,La Rioja,7,De 20 a 24 anos,18
46,La Rioja,7,De 20 a 24 anos,16
46,La Rioja,7,De 20 a 24 anos,8
46,La Rioja,7,De 20 a 24 anos,10
46,La Rioja,7,De 20 a 24 anos,7
46,La Rioja,7,De 20 a 24 anos,4
46,La Rioja,7,De 20 a 24 anos,1
46,La Rioja,7,De 20 a 24 anos,1
46,La Rioja,7,De 20 a 24 anos,1
46,La Rioja,7,De 20 a 24 anos,1
54,Misiones,7,De 20 a 24 anos,1
54,Misiones,7,De 20 a 24 anos,1
54,Misiones,7,De 20 a 24 anos,1
54,Misiones,7,De 20 a 24 anos,1
54,Misiones,7,De 20 a 24 anos,1
54,Misiones,7,De 20 a 24 anos,3
54,Misiones,7,De 20 a 24 anos,1
54,Misiones,7,De 20 a 24 anos,1
54,Misiones,7,De 20 a 24 anos,1
54,Misiones,7,De 20 a 24 anos,1
54,Misiones,7,De 20 a 24 anos,1
54,Misiones,7,De 20 a 24 anos,1
54,Misiones,7,De 20 a 24 anos,1
66,Salta,7,De 20 a 24 anos,1
66,Salta,7,De 20 a 24 anos,2
66,Salta,7,De 20 a 24 anos,3
66,Salta,7,De 20 a 24 anos,1
66,Salta,7,De 20 a 24 anos,7
66,Salta,7,De 20 a 24 anos,2
66,Salta,7,De 20 a 24 anos,2
66,Salta,7,De 20 a 24 anos,3
66,Salta,7,De 20 a 24 anos,1
66,Salta,7,De 20 a 24 anos,1
66,Salta,7,De 20 a 24 anos,1
66,Salta,7,De 20 a 24 anos,1
66,Salta,7,De 20 a 24 anos,1
66,Salta,7,De 20 a 24 anos,2
66,Salta,7,De 20 a 24 anos,2
66,Salta,7,De 20 a 24 anos,4
66,Salta,7,De 20 a 24 anos,5
66,Salta,7,De 20 a 24 anos,5
66,Salta,7,De 20 a 24 anos,3
66,Salta,7,De 20 a 24 anos,2
66,Salta,7,De 20 a 24 anos,1
66,Salta,7,De 20 a 24 anos,1
66,Salta,7,De 20 a 24 anos,2
66,Salta,7,De 20 a 24 anos,3
66,Salta,7,De 20 a 24 anos,1
66,Salta,7,De 20 a 24 anos,5
66,Salta,7,De 20 a 24 anos,2
66,Salta,7,De 20 a 24 anos,6
66,Salta,7,De 20 a 24 anos,7
66,Salta,7,De 20 a 24 anos,4
66,Salta,7,De 20 a 24 anos,4
66,Salta,7,De 20 a 24 anos,5
66,Salta,7,De 20 a 24 anos,4
66,Salta,7,De 20 a 24 anos,2
66,Salta,7,De 20 a 24 anos,11
66,Salta,7,De 20 a 24 anos,5
66,Salta,7,De 20 a 24 anos,5
66,Salta,7,De 20 a 24 anos,6
66,Salta,7,De 20 a 24 anos,9
66,Salta,7,De 20 a 24 anos,7
66,Salta,7,De 20 a 24 anos,1
66,Salta,7,De 20 a 24 anos,5
66,Salta,7,De 20 a 24 anos,2
66,Salta,7,De 20 a 24 anos,2
66,Salta,7,De 20 a 24 anos,1
66,Salta,7,De 20 a 24 anos,3
66,Salta,7,De 20 a 24 anos,4
66,Salta,7,De 20 a 24 anos,3
66,Salta,7,De 20 a 24 anos,1
66,Salta,7,De 20 a 24 anos,3
66,Salta,7,De 20 a 24 anos,1
74,San Luis,7,De 20 a 24 anos,1
82,Santa Fe,7,De 20 a 24 anos,2
82,Santa Fe,7,De 20 a 24 anos,1
82,Santa Fe,7,De 20 a 24 anos,1
2,CABA,8,De 25 a 34 anos,1
2,CABA,8,De 25 a 34 anos,1
6,Buenos Aires,8,De 25 a 34 anos,1
6,Buenos Aires,8,De 25 a 34 anos,1
14,Córdoba,8,De 25 a 34 anos,1
14,Córdoba,8,De 25 a 34 anos,1
14,Córdoba,8,De 25 a 34 anos,1
18,Corrientes,8,De 25 a 34 anos,3
18,Corrientes,8,De 25 a 34 anos,1
18,Corrientes,8,De 25 a 34 anos,1
22,Chaco,8,De 25 a 34 anos,1
30,Entre Ríos,8,De 25 a 34 anos,1
30,Entre Ríos,8,De 25 a 34 anos,1
30,Entre Ríos,8,De 25 a 34 anos,1
34,Formosa,8,De 25 a 34 anos,1
34,Formosa,8,De 25 a 34 anos,1
34,Formosa,8,De 25 a 34 anos,1
34,Formosa,8,De 25 a 34 anos,3
34,Formosa,8,De 25 a 34 anos,2
34,Formosa,8,De 25 a 34 anos,11
34,Formosa,8,De 25 a 34 anos,10
34,Formosa,8,De 25 a 34 anos,6
34,Formosa,8,De 25 a 34 anos,5
34,Formosa,8,De 25 a 34 anos,1
34,Formosa,8,De 25 a 34 anos,9
34,Formosa,8,De 25 a 34 anos,2
34,Formosa,8,De 25 a 34 anos,1
34,Formosa,8,De 25 a 34 anos,1
38,Jujuy,8,De 25 a 34 anos,1
38,Jujuy,8,De 25 a 34 anos,2
38,Jujuy,8,De 25 a 34 anos,1
38,Jujuy,8,De 25 a 34 anos,6
38,Jujuy,8,De 25 a 34 anos,2
38,Jujuy,8,De 25 a 34 anos,2
38,Jujuy,8,De 25 a 34 anos,3
38,Jujuy,8,De 25 a 34 anos,8
38,Jujuy,8,De 25 a 34 anos,11
38,Jujuy,8,De 25 a 34 anos,7
38,Jujuy,8,De 25 a 34 anos,1
38,Jujuy,8,De 25 a 34 anos,5
38,Jujuy,8,De 25 a 34 anos,1
38,Jujuy,8,De 25 a 34 anos,4
38,Jujuy,8,De 25 a 34 anos,5
38,Jujuy,8,De 25 a 34 anos,9
38,Jujuy,8,De 25 a 34 anos,3
38,Jujuy,8,De 25 a 34 anos,1
38,Jujuy,8,De 25 a 34 anos,3
38,Jujuy,8,De 25 a 34 anos,3
38,Jujuy,8,De 25 a 34 anos,1
46,La Rioja,8,De 25 a 34 anos,1
46,La Rioja,8,De 25 a 34 anos,3
46,La Rioja,8,De 25 a 34 anos,3
46,La Rioja,8,De 25 a 34 anos,4
46,La Rioja,8,De 25 a 34 anos,4
46,La Rioja,8,De 25 a 34 anos,9
46,La Rioja,8,De 25 a 34 anos,7
46,La Rioja,8,De 25 a 34 anos,15
46,La Rioja,8,De 25 a 34 anos,15
46,La Rioja,8,De 25 a 34 anos,21
46,La Rioja,8,De 25 a 34 anos,38
46,La Rioja,8,De 25 a 34 anos,26
46,La Rioja,8,De 25 a 34 anos,27
46,La Rioja,8,De 25 a 34 anos,19
46,La Rioja,8,De 25 a 34 anos,20
46,La Rioja,8,De 25 a 34 anos,8
46,La Rioja,8,De 25 a 34 anos,4
46,La Rioja,8,De 25 a 34 anos,2
46,La Rioja,8,De 25 a 34 anos,1
46,La Rioja,8,De 25 a 34 anos,1
46,La Rioja,8,De 25 a 34 anos,2
50,Mendoza,8,De 25 a 34 anos,1
54,Misiones,8,De 25 a 34 anos,1
54,Misiones,8,De 25 a 34 anos,1
54,Misiones,8,De 25 a 34 anos,1
54,Misiones,8,De 25 a 34 anos,1
54,Misiones,8,De 25 a 34 anos,1
54,Misiones,8,De 25 a 34 anos,7
54,Misiones,8,De 25 a 34 anos,2
54,Misiones,8,De 25 a 34 anos,1
54,Misiones,8,De 25 a 34 anos,1
54,Misiones,8,De 25 a 34 anos,1
54,Misiones,8,De 25 a 34 anos,3
54,Misiones,8,De 25 a 34 anos,1
54,Misiones,8,De 25 a 34 anos,1
54,Misiones,8,De 25 a 34 anos,1
54,Misiones,8,De 25 a 34 anos,1
54,Misiones,8,De 25 a 34 anos,1
54,Misiones,8,De 25 a 34 anos,1
54,Misiones,8,De 25 a 34 anos,1
66,Salta,8,De 25 a 34 anos,3
66,Salta,8,De 25 a 34 anos,1
66,Salta,8,De 25 a 34 anos,3
66,Salta,8,De 25 a 34 anos,4
66,Salta,8,De 25 a 34 anos,2
66,Salta,8,De 25 a 34 anos,8
66,Salta,8,De 25 a 34 anos,3
66,Salta,8,De 25 a 34 anos,1
66,Salta,8,De 25 a 34 anos,6
66,Salta,8,De 25 a 34 anos,3
66,Salta,8,De 25 a 34 anos,1
66,Salta,8,De 25 a 34 anos,1
66,Salta,8,De 25 a 34 anos,1
66,Salta,8,De 25 a 34 anos,1
66,Salta,8,De 25 a 34 anos,1
66,Salta,8,De 25 a 34 anos,1
66,Salta,8,De 25 a 34 anos,1
66,Salta,8,De 25 a 34 anos,1
66,Salta,8,De 25 a 34 anos,3
66,Salta,8,De 25 a 34 anos,1
66,Salta,8,De 25 a 34 anos,1
66,Salta,8,De 25 a 34 anos,2
66,Salta,8,De 25 a 34 anos,1
66,Salta,8,De 25 a 34 anos,3
66,Salta,8,De 25 a 34 anos,2
66,Salta,8,De 25 a 34 anos,2
66,Salta,8,De 25 a 34 anos,7
66,Salta,8,De 25 a 34 anos,7
66,Salta,8,De 25 a 34 anos,6
66,Salta,8,De 25 a 34 anos,1
66,Salta,8,De 25 a 34 anos,1
66,Salta,8,De 25 a 34 anos,1
66,Salta,8,De 25 a 34 anos,3
66,Salta,8,De 25 a 34 anos,1
66,Salta,8,De 25 a 34 anos,2
66,Salta,8,De 25 a 34 anos,1
66,Salta,8,De 25 a 34 anos,1
66,Salta,8,De 25 a 34 anos,3
66,Salta,8,De 25 a 34 anos,4
66,Salta,8,De 25 a 34 anos,4
66,Salta,8,De 25 a 34 anos,10
66,Salta,8,De 25 a 34 anos,1
66,Salta,8,De 25 a 34 anos,2
66,Salta,8,De 25 a 34 anos,9
66,Salta,8,De 25 a 34 anos,2
66,Salta,8,De 25 a 34 anos,6
66,Salta,8,De 25 a 34 anos,10
66,Salta,8,De 25 a 34 anos,8
66,Salta,8,De 25 a 34 anos,10
66,Salta,8,De 25 a 34 anos,13
66,Salta,8,De 25 a 34 anos,18
66,Salta,8,De 25 a 34 anos,22
66,Salta,8,De 25 a 34 anos,22
66,Salta,8,De 25 a 34 anos,11
66,Salta,8,De 25 a 34 anos,9
66,Salta,8,De 25 a 34 anos,7
66,Salta,8,De 25 a 34 anos,5
66,Salta,8,De 25 a 34 anos,4
66,Salta,8,De 25 a 34 anos,1
66,Salta,8,De 25 a 34 anos,1
66,Salta,8,De 25 a 34 anos,2
66,Salta,8,De 25 a 34 anos,1
66,Salta,8,De 25 a 34 anos,2
66,Salta,8,De 25 a 34 anos,3
66,Salta,8,De 25 a 34 anos,5
66,Salta,8,De 25 a 34 anos,9
66,Salta,8,De 25 a 34 anos,2
66,Salta,8,De 25 a 34 anos,1
66,Salta,8,De 25 a 34 anos,2
66,Salta,8,De 25 a 34 anos,1
66,Salta,8,De 25 a 34 anos,1
74,San Luis,8,De 25 a 34 anos,2
74,San Luis,8,De 25 a 34 anos,1
82,Santa Fe,8,De 25 a 34 anos,1
82,Santa Fe,8,De 25 a 34 anos,3
82,Santa Fe,8,De 25 a 34 anos,1
82,Santa Fe,8,De 25 a 34 anos,1
90,Tucumán,8,De 25 a 34 anos,1
90,Tucumán,8,De 25 a 34 anos,1
90,Tucumán,8,De 25 a 34 anos,2
90,Tucumán,8,De 25 a 34 anos,1
46,La Rioja,8,De 25 a 34 anos,1
6,Buenos Aires,9,De 35 a 44 anos,1
6,Buenos Aires,9,De 35 a 44 anos,1
14,Córdoba,9,De 35 a 44 anos,1
30,Entre Ríos,9,De 35 a 44 anos,1
30,Entre Ríos,9,De 35 a 44 anos,2
30,Entre Ríos,9,De 35 a 44 anos,1
30,Entre Ríos,9,De 35 a 44 anos,1
34,Formosa,9,De 35 a 44 anos,4
34,Formosa,9,De 35 a 44 anos,2
34,Formosa,9,De 35 a 44 anos,9
34,Formosa,9,De 35 a 44 anos,9
34,Formosa,9,De 35 a 44 anos,5
34,Formosa,9,De 35 a 44 anos,10
34,Formosa,9,De 35 a 44 anos,3
34,Formosa,9,De 35 a 44 anos,1
38,Jujuy,9,De 35 a 44 anos,1
38,Jujuy,9,De 35 a 44 anos,1
38,Jujuy,9,De 35 a 44 anos,1
38,Jujuy,9,De 35 a 44 anos,3
38,Jujuy,9,De 35 a 44 anos,1
38,Jujuy,9,De 35 a 44 anos,3
38,Jujuy,9,De 35 a 44 anos,2
38,Jujuy,9,De 35 a 44 anos,5
38,Jujuy,9,De 35 a 44 anos,10
38,Jujuy,9,De 35 a 44 anos,5
38,Jujuy,9,De 35 a 44 anos,4
38,Jujuy,9,De 35 a 44 anos,2
38,Jujuy,9,De 35 a 44 anos,1
38,Jujuy,9,De 35 a 44 anos,1
38,Jujuy,9,De 35 a 44 anos,1
38,Jujuy,9,De 35 a 44 anos,2
38,Jujuy,9,De 35 a 44 anos,4
38,Jujuy,9,De 35 a 44 anos,3
38,Jujuy,9,De 35 a 44 anos,2
38,Jujuy,9,De 35 a 44 anos,7
38,Jujuy,9,De 35 a 44 anos,1
38,Jujuy,9,De 35 a 44 anos,1
38,Jujuy,9,De 35 a 44 anos,3
38,Jujuy,9,De 35 a 44 anos,3
38,Jujuy,9,De 35 a 44 anos,3
38,Jujuy,9,De 35 a 44 anos,1
46,La Rioja,9,De 35 a 44 anos,1
46,La Rioja,9,De 35 a 44 anos,1
46,La Rioja,9,De 35 a 44 anos,2
46,La Rioja,9,De 35 a 44 anos,1
46,La Rioja,9,De 35 a 44 anos,3
46,La Rioja,9,De 35 a 44 anos,2
46,La Rioja,9,De 35 a 44 anos,7
46,La Rioja,9,De 35 a 44 anos,13
46,La Rioja,9,De 35 a 44 anos,12
46,La Rioja,9,De 35 a 44 anos,14
46,La Rioja,9,De 35 a 44 anos,22
46,La Rioja,9,De 35 a 44 anos,11
46,La Rioja,9,De 35 a 44 anos,16
46,La Rioja,9,De 35 a 44 anos,23
46,La Rioja,9,De 35 a 44 anos,11
46,La Rioja,9,De 35 a 44 anos,16
46,La Rioja,9,De 35 a 44 anos,8
46,La Rioja,9,De 35 a 44 anos,5
46,La Rioja,9,De 35 a 44 anos,1
46,La Rioja,9,De 35 a 44 anos,1
54,Misiones,9,De 35 a 44 anos,1
54,Misiones,9,De 35 a 44 anos,1
54,Misiones,9,De 35 a 44 anos,2
54,Misiones,9,De 35 a 44 anos,3
54,Misiones,9,De 35 a 44 anos,4
54,Misiones,9,De 35 a 44 anos,2
54,Misiones,9,De 35 a 44 anos,1
54,Misiones,9,De 35 a 44 anos,4
54,Misiones,9,De 35 a 44 anos,1
54,Misiones,9,De 35 a 44 anos,1
54,Misiones,9,De 35 a 44 anos,1
54,Misiones,9,De 35 a 44 anos,1
54,Misiones,9,De 35 a 44 anos,2
54,Misiones,9,De 35 a 44 anos,1
66,Salta,9,De 35 a 44 anos,1
66,Salta,9,De 35 a 44 anos,2
66,Salta,9,De 35 a 44 anos,3
66,Salta,9,De 35 a 44 anos,2
66,Salta,9,De 35 a 44 anos,4
66,Salta,9,De 35 a 44 anos,6
66,Salta,9,De 35 a 44 anos,8
66,Salta,9,De 35 a 44 anos,4
66,Salta,9,De 35 a 44 anos,1
66,Salta,9,De 35 a 44 anos,2
66,Salta,9,De 35 a 44 anos,1
66,Salta,9,De 35 a 44 anos,1
66,Salta,9,De 35 a 44 anos,1
66,Salta,9,De 35 a 44 anos,1
66,Salta,9,De 35 a 44 anos,1
66,Salta,9,De 35 a 44 anos,2
66,Salta,9,De 35 a 44 anos,5
66,Salta,9,De 35 a 44 anos,7
66,Salta,9,De 35 a 44 anos,5
66,Salta,9,De 35 a 44 anos,1
66,Salta,9,De 35 a 44 anos,2
66,Salta,9,De 35 a 44 anos,6
66,Salta,9,De 35 a 44 anos,1
66,Salta,9,De 35 a 44 anos,3
66,Salta,9,De 35 a 44 anos,1
66,Salta,9,De 35 a 44 anos,2
66,Salta,9,De 35 a 44 anos,1
66,Salta,9,De 35 a 44 anos,1
66,Salta,9,De 35 a 44 anos,2
66,Salta,9,De 35 a 44 anos,5
66,Salta,9,De 35 a 44 anos,6
66,Salta,9,De 35 a 44 anos,2
66,Salta,9,De 35 a 44 anos,4
66,Salta,9,De 35 a 44 anos,4
66,Salta,9,De 35 a 44 anos,4
66,Salta,9,De 35 a 44 anos,1
66,Salta,9,De 35 a 44 anos,5
66,Salta,9,De 35 a 44 anos,10
66,Salta,9,De 35 a 44 anos,8
66,Salta,9,De 35 a 44 anos,6
66,Salta,9,De 35 a 44 anos,15
66,Salta,9,De 35 a 44 anos,19
66,Salta,9,De 35 a 44 anos,14
66,Salta,9,De 35 a 44 anos,15
66,Salta,9,De 35 a 44 anos,12
66,Salta,9,De 35 a 44 anos,4
66,Salta,9,De 35 a 44 anos,3
66,Salta,9,De 35 a 44 anos,4
66,Salta,9,De 35 a 44 anos,4
66,Salta,9,De 35 a 44 anos,1
66,Salta,9,De 35 a 44 anos,1
66,Salta,9,De 35 a 44 anos,1
66,Salta,9,De 35 a 44 anos,3
66,Salta,9,De 35 a 44 anos,3
66,Salta,9,De 35 a 44 anos,7
66,Salta,9,De 35 a 44 anos,1
66,Salta,9,De 35 a 44 anos,1
66,Salta,9,De 35 a 44 anos,1
66,Salta,9,De 35 a 44 anos,2
82,Santa Fe,9,De 35 a 44 anos,1
82,Santa Fe,9,De 35 a 44 anos,1
82,Santa Fe,9,De 35 a 44 anos,2
82,Santa Fe,9,De 35 a 44 anos,1
90,Tucumán,9,De 35 a 44 anos,1
90,Tucumán,9,De 35 a 44 anos,1
90,Tucumán,9,De 35 a 44 anos,1
90,Tucumán,9,De 35 a 44 anos,1
90,Tucumán,9,De 35 a 44 anos,1
6,Buenos Aires,10,De 45 a 65 anos,1
6,Buenos Aires,10,De 45 a 65 anos,1
6,Buenos Aires,10,De 45 a 65 anos,1
10,Catamarca,10,De 45 a 65 anos,1
14,Córdoba,10,De 45 a 65 anos,1
18,Corrientes,10,De 45 a 65 anos,1
18,Corrientes,10,De 45 a 65 anos,1
18,Corrientes,10,De 45 a 65 anos,1
30,Entre Ríos,10,De 45 a 65 anos,2
30,Entre Ríos,10,De 45 a 65 anos,2
30,Entre Ríos,10,De 45 a 65 anos,1
34,Formosa,10,De 45 a 65 anos,1
34,Formosa,10,De 45 a 65 anos,1
34,Formosa,10,De 45 a 65 anos,1
34,Formosa,10,De 45 a 65 anos,5
34,Formosa,10,De 45 a 65 anos,2
34,Formosa,10,De 45 a 65 anos,6
34,Formosa,10,De 45 a 65 anos,25
34,Formosa,10,De 45 a 65 anos,9
34,Formosa,10,De 45 a 65 anos,7
34,Formosa,10,De 45 a 65 anos,1
34,Formosa,10,De 45 a 65 anos,9
34,Formosa,10,De 45 a 65 anos,2
34,Formosa,10,De 45 a 65 anos,1
34,Formosa,10,De 45 a 65 anos,1
38,Jujuy,10,De 45 a 65 anos,1
38,Jujuy,10,De 45 a 65 anos,1
38,Jujuy,10,De 45 a 65 anos,1
38,Jujuy,10,De 45 a 65 anos,2
38,Jujuy,10,De 45 a 65 anos,1
38,Jujuy,10,De 45 a 65 anos,5
38,Jujuy,10,De 45 a 65 anos,3
38,Jujuy,10,De 45 a 65 anos,4
38,Jujuy,10,De 45 a 65 anos,8
38,Jujuy,10,De 45 a 65 anos,11
38,Jujuy,10,De 45 a 65 anos,4
38,Jujuy,10,De 45 a 65 anos,4
38,Jujuy,10,De 45 a 65 anos,2
38,Jujuy,10,De 45 a 65 anos,2
38,Jujuy,10,De 45 a 65 anos,2
38,Jujuy,10,De 45 a 65 anos,1
38,Jujuy,10,De 45 a 65 anos,1
38,Jujuy,10,De 45 a 65 anos,3
38,Jujuy,10,De 45 a 65 anos,1
38,Jujuy,10,De 45 a 65 anos,3
38,Jujuy,10,De 45 a 65 anos,3
38,Jujuy,10,De 45 a 65 anos,1
38,Jujuy,10,De 45 a 65 anos,1
38,Jujuy,10,De 45 a 65 anos,1
46,La Rioja,10,De 45 a 65 anos,1
46,La Rioja,10,De 45 a 65 anos,1
46,La Rioja,10,De 45 a 65 anos,4
46,La Rioja,10,De 45 a 65 anos,5
46,La Rioja,10,De 45 a 65 anos,3
46,La Rioja,10,De 45 a 65 anos,10
46,La Rioja,10,De 45 a 65 anos,10
46,La Rioja,10,De 45 a 65 anos,16
46,La Rioja,10,De 45 a 65 anos,18
46,La Rioja,10,De 45 a 65 anos,11
46,La Rioja,10,De 45 a 65 anos,11
46,La Rioja,10,De 45 a 65 anos,25
46,La Rioja,10,De 45 a 65 anos,33
46,La Rioja,10,De 45 a 65 anos,27
46,La Rioja,10,De 45 a 65 anos,22
46,La Rioja,10,De 45 a 65 anos,15
46,La Rioja,10,De 45 a 65 anos,9
46,La Rioja,10,De 45 a 65 anos,4
46,La Rioja,10,De 45 a 65 anos,1
46,La Rioja,10,De 45 a 65 anos,1
46,La Rioja,10,De 45 a 65 anos,1
54,Misiones,10,De 45 a 65 anos,1
54,Misiones,10,De 45 a 65 anos,1
54,Misiones,10,De 45 a 65 anos,1
54,Misiones,10,De 45 a 65 anos,1
54,Misiones,10,De 45 a 65 anos,1
54,Misiones,10,De 45 a 65 anos,1
54,Misiones,10,De 45 a 65 anos,1
54,Misiones,10,De 45 a 65 anos,1
66,Salta,10,De 45 a 65 anos,2
66,Salta,10,De 45 a 65 anos,3
66,Salta,10,De 45 a 65 anos,3
66,Salta,10,De 45 a 65 anos,4
66,Salta,10,De 45 a 65 anos,3
66,Salta,10,De 45 a 65 anos,4
66,Salta,10,De 45 a 65 anos,3
66,Salta,10,De 45 a 65 anos,2
66,Salta,10,De 45 a 65 anos,1
66,Salta,10,De 45 a 65 anos,1
66,Salta,10,De 45 a 65 anos,1
66,Salta,10,De 45 a 65 anos,1
66,Salta,10,De 45 a 65 anos,2
66,Salta,10,De 45 a 65 anos,1
66,Salta,10,De 45 a 65 anos,1
66,Salta,10,De 45 a 65 anos,4
66,Salta,10,De 45 a 65 anos,10
66,Salta,10,De 45 a 65 anos,15
66,Salta,10,De 45 a 65 anos,6
66,Salta,10,De 45 a 65 anos,14
66,Salta,10,De 45 a 65 anos,1
66,Salta,10,De 45 a 65 anos,1
66,Salta,10,De 45 a 65 anos,6
66,Salta,10,De 45 a 65 anos,3
66,Salta,10,De 45 a 65 anos,1
66,Salta,10,De 45 a 65 anos,2
66,Salta,10,De 45 a 65 anos,3
66,Salta,10,De 45 a 65 anos,3
66,Salta,10,De 45 a 65 anos,4
66,Salta,10,De 45 a 65 anos,9
66,Salta,10,De 45 a 65 anos,2
66,Salta,10,De 45 a 65 anos,8
66,Salta,10,De 45 a 65 anos,12
66,Salta,10,De 45 a 65 anos,3
66,Salta,10,De 45 a 65 anos,9
66,Salta,10,De 45 a 65 anos,11
66,Salta,10,De 45 a 65 anos,7
66,Salta,10,De 45 a 65 anos,10
66,Salta,10,De 45 a 65 anos,10
66,Salta,10,De 45 a 65 anos,21
66,Salta,10,De 45 a 65 anos,16
66,Salta,10,De 45 a 65 anos,27
66,Salta,10,De 45 a 65 anos,24
66,Salta,10,De 45 a 65 anos,8
66,Salta,10,De 45 a 65 anos,4
66,Salta,10,De 45 a 65 anos,2
66,Salta,10,De 45 a 65 anos,7
66,Salta,10,De 45 a 65 anos,1
66,Salta,10,De 45 a 65 anos,1
66,Salta,10,De 45 a 65 anos,6
66,Salta,10,De 45 a 65 anos,1
66,Salta,10,De 45 a 65 anos,1
66,Salta,10,De 45 a 65 anos,1
66,Salta,10,De 45 a 65 anos,4
82,Santa Fe,10,De 45 a 65 anos,1
82,Santa Fe,10,De 45 a 65 anos,2
82,Santa Fe,10,De 45 a 65 anos,1
82,Santa Fe,10,De 45 a 65 anos,4
82,Santa Fe,10,De 45 a 65 anos,1
82,Santa Fe,10,De 45 a 65 anos,1
90,Tucumán,10,De 45 a 65 anos,1
90,Tucumán,10,De 45 a 65 anos,1
90,Tucumán,10,De 45 a 65 anos,1
90,Tucumán,10,De 45 a 65 anos,1
90,Tucumán,10,De 45 a 65 anos,1
90,Tucumán,10,De 45 a 65 anos,1
18,Corrientes,11,Mayores de 66 anos,1
34,Formosa,11,Mayores de 66 anos,2
34,Formosa,11,Mayores de 66 anos,2
34,Formosa,11,Mayores de 66 anos,3
34,Formosa,11,Mayores de 66 anos,12
34,Formosa,11,Mayores de 66 anos,12
34,Formosa,11,Mayores de 66 anos,6
34,Formosa,11,Mayores de 66 anos,5
34,Formosa,11,Mayores de 66 anos,2
34,Formosa,11,Mayores de 66 anos,8
34,Formosa,11,Mayores de 66 anos,1
34,Formosa,11,Mayores de 66 anos,1
38,Jujuy,11,Mayores de 66 anos,1
38,Jujuy,11,Mayores de 66 anos,1
38,Jujuy,11,Mayores de 66 anos,1
38,Jujuy,11,Mayores de 66 anos,3
38,Jujuy,11,Mayores de 66 anos,1
38,Jujuy,11,Mayores de 66 anos,1
38,Jujuy,11,Mayores de 66 anos,2
38,Jujuy,11,Mayores de 66 anos,2
46,La Rioja,11,Mayores de 66 anos,1
46,La Rioja,11,Mayores de 66 anos,1
46,La Rioja,11,Mayores de 66 anos,3
46,La Rioja,11,Mayores de 66 anos,3
46,La Rioja,11,Mayores de 66 anos,8
46,La Rioja,11,Mayores de 66 anos,3
46,La Rioja,11,Mayores de 66 anos,6
46,La Rioja,11,Mayores de 66 anos,11
46,La Rioja,11,Mayores de 66 anos,1
46,La Rioja,11,Mayores de 66 anos,1
46,La Rioja,11,Mayores de 66 anos,5
46,La Rioja,11,Mayores de 66 anos,4
46,La Rioja,11,Mayores de 66 anos,1
46,La Rioja,11,Mayores de 66 anos,1
46,La Rioja,11,Mayores de 66 anos,1
46,La Rioja,11,Mayores de 66 anos,1
54,Misiones,11,Mayores de 66 anos,1
54,Misiones,11,Mayores de 66 anos,1
54,Misiones,11,Mayores de 66 anos,1
54,Misiones,11,Mayores de 66 anos,1
66,Salta,11,Mayores de 66 anos,1
66,Salta,11,Mayores de 66 anos,1
66,Salta,11,Mayores de 66 anos,1
66,Salta,11,Mayores de 66 anos,1
66,Salta,11,Mayores de 66 anos,1
66,Salta,11,Mayores de 66 anos,5
66,Salta,11,Mayores de 66 anos,2
66,Salta,11,Mayores de 66 anos,3
66,Salta,11,Mayores de 66 anos,2
66,Salta,11,Mayores de 66 anos,2
66,Salta,11,Mayores de 66 anos,1
66,Salta,11,Mayores de 66 anos,3
66,Salta,11,Mayores de 66 anos,1
66,Salta,11,Mayores de 66 anos,2
66,Salta,11,Mayores de 66 anos,2
66,Salta,11,Mayores de 66 anos,5
66,Salta,11,Mayores de 66 anos,4
66,Salta,11,Mayores de 66 anos,2
66,Salta,11,Mayores de 66 anos,1
66,Salta,11,Mayores de 66 anos,7
66,Salta,11,Mayores de 66 anos,2
66,Salta,11,Mayores de 66 anos,11
66,Salta,11,Mayores de 66 anos,5
66,Salta,11,Mayores de 66 anos,1
66,Salta,11,Mayores de 66 anos,1
66,Salta,11,Mayores de 66 anos,3
66,Salta,11,Mayores de 66 anos,1
66,Salta,11,Mayores de 66 anos,2
66,Salta,11,Mayores de 66 anos,1
66,Salta,11,Mayores de 66 anos,1
66,Salta,11,Mayores de 66 anos,2
66,Salta,11,Mayores de 66 anos,1
66,Salta,11,Mayores de 66 anos,1
82,Santa Fe,11,Mayores de 66 anos,2
82,Santa Fe,11,Mayores de 66 anos,1
82,Santa Fe,11,Mayores de 66 anos,1
90,Tucumán,11,Mayores de 66 anos,1
90,Tucumán,11,Mayores de 66 anos,1
66,Salta,1,Posneonato (29 hasta 365 dias),1
66,Salta,3,De 2 a 4 anos,1
66,Salta,5,De 10 a 14 anos,1
66,Salta,8,De 25 a 34 anos,2
66,Salta,9,De 35 a 44 anos,2
66,Salta,10,De 45 a 65 anos,1
66,Salta,1,Posneonato (29 hasta 365 dias),1
66,Salta,3,De 2 a 4 anos,1
66,Salta,5,De 10 a 14 anos,1
66,Salta,8,De 25 a 34 anos,2
66,Salta,9,De 35 a 44 anos,2
66,Salta,10,De 45 a 65 anos,1
66,Salta,6,De 15 a 19 anos,1
66,Salta,5,De 10 a 14 anos,1
66,Salta,10,De 45 a 65 anos,1
66,Salta,6,De 15 a 19 anos,1
66,Salta,9,De 35 a 44 anos,1
66,Salta,10,De 45 a 65 anos,1
66,Salta,3,De 2 a 4 anos,1
66,Salta,4,De 5 a 9 anos,1
66,Salta,8,De 25 a 34 anos,2
66,Salta,9,De 35 a 44 anos,1
66,Salta,10,De 45 a 65 anos,1
66,Salta,4,De 5 a 9 anos,1
66,Salta,6,De 15 a 19 anos,1
66,Salta,7,De 20 a 24 anos,1
66,Salta,8,De 25 a 34 anos,1
66,Salta,9,De 35 a 44 anos,1
66,Salta,10,De 45 a 65 anos,2
66,Salta,11,Mayores de 66 anos,1
66,Salta,6,De 15 a 19 anos,1
66,Salta,9,De 35 a 44 anos,1
66,Salta,3,De 2 a 4 anos,1
66,Salta,4,De 5 a 9 anos,1
66,Salta,6,De 15 a 19 anos,1
66,Salta,8,De 25 a 34 anos,1
66,Salta,9,De 35 a 44 anos,1
66,Salta,7,De 20 a 24 anos,1
66,Salta,6,De 15 a 19 anos,1
66,Salta,10,De 45 a 65 anos,1
66,Salta,3,De 2 a 4 anos,3
66,Salta,4,De 5 a 9 anos,8
66,Salta,5,De 10 a 14 anos,9
66,Salta,6,De 15 a 19 anos,5
66,Salta,7,De 20 a 24 anos,10
66,Salta,8,De 25 a 34 anos,16
66,Salta,9,De 35 a 44 anos,8
66,Salta,10,De 45 a 65 anos,5
66,Salta,11,Mayores de 66 anos,2
66,Salta,2,De 13 a 24 meses,1
66,Salta,3,De 2 a 4 anos,5
66,Salta,4,De 5 a 9 anos,12
66,Salta,5,De 10 a 14 anos,8
66,Salta,6,De 15 a 19 anos,8
66,Salta,7,De 20 a 24 anos,3
66,Salta,8,De 25 a 34 anos,10
66,Salta,9,De 35 a 44 anos,4
66,Salta,10,De 45 a 65 anos,7
66,Salta,2,De 13 a 24 meses,2
66,Salta,3,De 2 a 4 anos,4
66,Salta,4,De 5 a 9 anos,5
66,Salta,5,De 10 a 14 anos,5
66,Salta,6,De 15 a 19 anos,4
66,Salta,7,De 20 a 24 anos,3
66,Salta,8,De 25 a 34 anos,8
66,Salta,9,De 35 a 44 anos,6
66,Salta,10,De 45 a 65 anos,4
66,Salta,3,De 2 a 4 anos,1
66,Salta,5,De 10 a 14 anos,4
66,Salta,6,De 15 a 19 anos,2
66,Salta,7,De 20 a 24 anos,1
66,Salta,8,De 25 a 34 anos,3
66,Salta,9,De 35 a 44 anos,3
66,Salta,10,De 45 a 65 anos,2
66,Salta,11,Mayores de 66 anos,1
66,Salta,1,Posneonato (29 hasta 365 dias),1
66,Salta,2,De 13 a 24 meses,2
66,Salta,3,De 2 a 4 anos,2
66,Salta,4,De 5 a 9 anos,4
66,Salta,5,De 10 a 14 anos,6
66,Salta,6,De 15 a 19 anos,7
66,Salta,7,De 20 a 24 anos,3
66,Salta,8,De 25 a 34 anos,4
66,Salta,9,De 35 a 44 anos,2
66,Salta,10,De 45 a 65 anos,2
66,Salta,11,Mayores de 66 anos,2
66,Salta,3,De 2 a 4 anos,2
66,Salta,4,De 5 a 9 anos,5
66,Salta,5,De 10 a 14 anos,5
66,Salta,6,De 15 a 19 anos,5
66,Salta,7,De 20 a 24 anos,1
66,Salta,8,De 25 a 34 anos,4
66,Salta,9,De 35 a 44 anos,3
66,Salta,10,De 45 a 65 anos,2
66,Salta,11,Mayores de 66 anos,1
66,Salta,4,De 5 a 9 anos,2
66,Salta,5,De 10 a 14 anos,4
66,Salta,6,De 15 a 19 anos,1
66,Salta,7,De 20 a 24 anos,1
66,Salta,9,De 35 a 44 anos,2
66,Salta,10,De 45 a 65 anos,1
66,Salta,4,De 5 a 9 anos,1
66,Salta,5,De 10 a 14 anos,1
66,Salta,6,De 15 a 19 anos,1
66,Salta,9,De 35 a 44 anos,1
66,Salta,3,De 2 a 4 anos,1
66,Salta,4,De 5 a 9 anos,2
66,Salta,5,De 10 a 14 anos,2
66,Salta,6,De 15 a 19 anos,4
66,Salta,7,De 20 a 24 anos,5
66,Salta,8,De 25 a 34 anos,4
66,Salta,9,De 35 a 44 anos,7
66,Salta,10,De 45 a 65 anos,5
66,Salta,3,De 2 a 4 anos,1
66,Salta,5,De 10 a 14 anos,1
66,Salta,6,De 15 a 19 anos,1
66,Salta,7,De 20 a 24 anos,1
66,Salta,8,De 25 a 34 anos,2
66,Salta,9,De 35 a 44 anos,3
66,Salta,10,De 45 a 65 anos,1
66,Salta,4,De 5 a 9 anos,1
66,Salta,5,De 10 a 14 anos,6
66,Salta,6,De 15 a 19 anos,3
66,Salta,7,De 20 a 24 anos,1
66,Salta,8,De 25 a 34 anos,5
66,Salta,10,De 45 a 65 anos,2
66,Salta,5,De 10 a 14 anos,1
66,Salta,6,De 15 a 19 anos,3
66,Salta,7,De 20 a 24 anos,1
66,Salta,8,De 25 a 34 anos,2
66,Salta,9,De 35 a 44 anos,1
66,Salta,10,De 45 a 65 anos,1
66,Salta,11,Mayores de 66 anos,1
66,Salta,3,De 2 a 4 anos,2
66,Salta,4,De 5 a 9 anos,1
66,Salta,6,De 15 a 19 anos,1
66,Salta,7,De 20 a 24 anos,1
66,Salta,8,De 25 a 34 anos,4
66,Salta,9,De 35 a 44 anos,3
66,Salta,10,De 45 a 65 anos,2
66,Salta,3,De 2 a 4 anos,1
66,Salta,4,De 5 a 9 anos,1
66,Salta,7,De 20 a 24 anos,2
66,Salta,8,De 25 a 34 anos,2
66,Salta,9,De 35 a 44 anos,1
66,Salta,10,De 45 a 65 anos,3
66,Salta,9,De 35 a 44 anos,2
66,Salta,4,De 5 a 9 anos,1
66,Salta,6,De 15 a 19 anos,1
66,Salta,8,De 25 a 34 anos,1
66,Salta,9,De 35 a 44 anos,1
6,Buenos Aires,7,De 15 a 19 anos,1
6,Buenos Aires,4,De 2 a 4 anos,1
6,Buenos Aires,9,De 25 a 34 anos,1
6,Buenos Aires,9,De 25 a 34 anos,1
6,Buenos Aires,9,De 25 a 34 anos,1
6,Buenos Aires,9,De 35 a 44 anos,1
6,Buenos Aires,9,De 35 a 44 anos,1
6,Buenos Aires,10,De 45 a 65 anos,1
6,Buenos Aires,10,De 45 a 65 anos,1
6,Buenos Aires,10,De 45 a 65 anos,1
6,Buenos Aires,5,De 5 a 9 anos,1
2,CABA,7,De 15 a 19 anos,1
2,CABA,9,De 25 a 34 anos,1
2,CABA,9,De 25 a 34 anos,1
10,Catamarca,7,De 15 a 19 anos,1
10,Catamarca,9,De 25 a 34 anos,1
10,Catamarca,10,De 45 a 65 anos,1
22,Chaco,9,De 25 a 34 anos,1
22,Chaco,1,Neonato (hasta 28 dias),1
14,Córdoba,7,De 15 a 19 anos,1
14,Córdoba,9,De 25 a 34 anos,1
14,Córdoba,9,De 25 a 34 anos,1
14,Córdoba,9,De 25 a 34 anos,1
14,Córdoba,9,De 35 a 44 anos,1
14,Córdoba,9,De 35 a 44 anos,1
14,Córdoba,10,De 45 a 65 anos,1
14,Córdoba,10,De 45 a 65 anos,1
14,Córdoba,11,Mayores de 65 anos,1
18,Corrientes,6,De 10 a 14 anos,1
18,Corrientes,7,De 15 a 19 anos,1
18,Corrientes,8,De 20 a 24 anos,1
18,Corrientes,9,De 25 a 34 anos,3
18,Corrientes,9,De 25 a 34 anos,1
18,Corrientes,9,De 25 a 34 anos,1
18,Corrientes,9,De 35 a 44 anos,1
18,Corrientes,10,De 45 a 65 anos,1
18,Corrientes,10,De 45 a 65 anos,1
18,Corrientes,10,De 45 a 65 anos,1
18,Corrientes,10,De 45 a 65 anos,1
18,Corrientes,11,Mayores de 65 anos,1
30,Entre Ríos,6,De 10 a 14 anos,1
30,Entre Ríos,7,De 15 a 19 anos,1
30,Entre Ríos,4,De 2 a 4 anos,1
30,Entre Ríos,9,De 25 a 34 anos,1
30,Entre Ríos,9,De 25 a 34 anos,1
30,Entre Ríos,9,De 25 a 34 anos,1
30,Entre Ríos,9,De 35 a 44 anos,1
30,Entre Ríos,9,De 35 a 44 anos,2
30,Entre Ríos,9,De 35 a 44 anos,1
30,Entre Ríos,9,De 35 a 44 anos,1
30,Entre Ríos,10,De 45 a 65 anos,2
30,Entre Ríos,10,De 45 a 65 anos,2
30,Entre Ríos,10,De 45 a 65 anos,1
30,Entre Ríos,5,De 5 a 9 anos,1
34,Formosa,6,De 10 a 14 anos,1
34,Formosa,6,De 10 a 14 anos,1
34,Formosa,6,De 10 a 14 anos,1
34,Formosa,6,De 10 a 14 anos,1
34,Formosa,6,De 10 a 14 anos,1
34,Formosa,6,De 10 a 14 anos,2
34,Formosa,6,De 10 a 14 anos,2
34,Formosa,6,De 10 a 14 anos,2
34,Formosa,6,De 10 a 14 anos,2
34,Formosa,6,De 10 a 14 anos,3
34,Formosa,6,De 10 a 14 anos,3
34,Formosa,6,De 10 a 14 anos,2
34,Formosa,6,De 10 a 14 anos,1
34,Formosa,3,De 13 a 24 meses,1
34,Formosa,3,De 13 a 24 meses,1
34,Formosa,3,De 13 a 24 meses,1
34,Formosa,7,De 15 a 19 anos,2
34,Formosa,7,De 15 a 19 anos,1
34,Formosa,7,De 15 a 19 anos,2
34,Formosa,7,De 15 a 19 anos,1
34,Formosa,7,De 15 a 19 anos,2
34,Formosa,7,De 15 a 19 anos,2
34,Formosa,7,De 15 a 19 anos,4
34,Formosa,7,De 15 a 19 anos,3
34,Formosa,7,De 15 a 19 anos,2
34,Formosa,7,De 15 a 19 anos,6
34,Formosa,7,De 15 a 19 anos,2
34,Formosa,7,De 15 a 19 anos,1
34,Formosa,7,De 15 a 19 anos,1
34,Formosa,4,De 2 a 4 anos,1
34,Formosa,4,De 2 a 4 anos,1
34,Formosa,4,De 2 a 4 anos,1
34,Formosa,4,De 2 a 4 anos,1
34,Formosa,8,De 20 a 24 anos,1
34,Formosa,8,De 20 a 24 anos,2
34,Formosa,8,De 20 a 24 anos,1
34,Formosa,8,De 20 a 24 anos,1
34,Formosa,8,De 20 a 24 anos,1
34,Formosa,8,De 20 a 24 anos,1
34,Formosa,8,De 20 a 24 anos,5
34,Formosa,8,De 20 a 24 anos,2
34,Formosa,8,De 20 a 24 anos,1
34,Formosa,8,De 20 a 24 anos,5
34,Formosa,8,De 20 a 24 anos,4
34,Formosa,8,De 20 a 24 anos,2
34,Formosa,8,De 20 a 24 anos,2
34,Formosa,9,De 25 a 34 anos,1
34,Formosa,9,De 25 a 34 anos,1
34,Formosa,9,De 25 a 34 anos,1
34,Formosa,9,De 25 a 34 anos,2
34,Formosa,9,De 25 a 34 anos,1
34,Formosa,9,De 25 a 34 anos,2
34,Formosa,9,De 25 a 34 anos,2
34,Formosa,9,De 25 a 34 anos,3
34,Formosa,9,De 25 a 34 anos,2
34,Formosa,9,De 25 a 34 anos,1
34,Formosa,9,De 25 a 34 anos,2
34,Formosa,9,De 25 a 34 anos,1
34,Formosa,9,De 25 a 34 anos,3
34,Formosa,9,De 25 a 34 anos,2
34,Formosa,9,De 25 a 34 anos,11
34,Formosa,9,De 25 a 34 anos,9
34,Formosa,9,De 25 a 34 anos,7
34,Formosa,9,De 25 a 34 anos,5
34,Formosa,9,De 25 a 34 anos,1
34,Formosa,9,De 25 a 34 anos,7
34,Formosa,9,De 25 a 34 anos,3
34,Formosa,9,De 25 a 34 anos,1
34,Formosa,9,De 25 a 34 anos,1
34,Formosa,9,De 35 a 44 anos,1
34,Formosa,9,De 35 a 44 anos,1
34,Formosa,9,De 35 a 44 anos,1
34,Formosa,9,De 35 a 44 anos,3
34,Formosa,9,De 35 a 44 anos,2
34,Formosa,9,De 35 a 44 anos,1
34,Formosa,9,De 35 a 44 anos,1
34,Formosa,9,De 35 a 44 anos,1
34,Formosa,9,De 35 a 44 anos,1
34,Formosa,9,De 35 a 44 anos,1
34,Formosa,9,De 35 a 44 anos,1
34,Formosa,9,De 35 a 44 anos,2
34,Formosa,9,De 35 a 44 anos,3
34,Formosa,9,De 35 a 44 anos,2
34,Formosa,9,De 35 a 44 anos,9
34,Formosa,9,De 35 a 44 anos,10
34,Formosa,9,De 35 a 44 anos,5
34,Formosa,9,De 35 a 44 anos,10
34,Formosa,9,De 35 a 44 anos,3
34,Formosa,9,De 35 a 44 anos,2
34,Formosa,9,De 35 a 44 anos,2
34,Formosa,9,De 35 a 44 anos,1
34,Formosa,10,De 45 a 65 anos,2
34,Formosa,10,De 45 a 65 anos,1
34,Formosa,10,De 45 a 65 anos,3
34,Formosa,10,De 45 a 65 anos,1
34,Formosa,10,De 45 a 65 anos,3
34,Formosa,10,De 45 a 65 anos,1
34,Formosa,10,De 45 a 65 anos,1
34,Formosa,10,De 45 a 65 anos,7
34,Formosa,10,De 45 a 65 anos,1
34,Formosa,10,De 45 a 65 anos,1
34,Formosa,10,De 45 a 65 anos,1
34,Formosa,10,De 45 a 65 anos,1
34,Formosa,10,De 45 a 65 anos,1
34,Formosa,10,De 45 a 65 anos,1
34,Formosa,10,De 45 a 65 anos,1
34,Formosa,10,De 45 a 65 anos,5
34,Formosa,10,De 45 a 65 anos,2
34,Formosa,10,De 45 a 65 anos,5
34,Formosa,10,De 45 a 65 anos,26
34,Formosa,10,De 45 a 65 anos,9
34,Formosa,10,De 45 a 65 anos,7
34,Formosa,10,De 45 a 65 anos,1
34,Formosa,10,De 45 a 65 anos,9
34,Formosa,10,De 45 a 65 anos,3
34,Formosa,10,De 45 a 65 anos,1
34,Formosa,10,De 45 a 65 anos,1
34,Formosa,10,De 45 a 65 anos,1
34,Formosa,10,De 45 a 65 anos,1
34,Formosa,10,De 45 a 65 anos,1
34,Formosa,5,De 5 a 9 anos,1
34,Formosa,5,De 5 a 9 anos,1
34,Formosa,5,De 5 a 9 anos,1
34,Formosa,5,De 5 a 9 anos,1
34,Formosa,5,De 5 a 9 anos,4
34,Formosa,5,De 5 a 9 anos,2
34,Formosa,5,De 5 a 9 anos,2
34,Formosa,5,De 5 a 9 anos,1
34,Formosa,5,De 5 a 9 anos,4
34,Formosa,5,De 5 a 9 anos,2
34,Formosa,5,De 5 a 9 anos,1
34,Formosa,11,Mayores de 65 anos,1
34,Formosa,11,Mayores de 65 anos,1
34,Formosa,11,Mayores de 65 anos,1
34,Formosa,11,Mayores de 65 anos,2
34,Formosa,11,Mayores de 65 anos,1
34,Formosa,11,Mayores de 65 anos,3
34,Formosa,11,Mayores de 65 anos,2
34,Formosa,11,Mayores de 65 anos,3
34,Formosa,11,Mayores de 65 anos,11
34,Formosa,11,Mayores de 65 anos,11
34,Formosa,11,Mayores de 65 anos,6
34,Formosa,11,Mayores de 65 anos,5
34,Formosa,11,Mayores de 65 anos,3
34,Formosa,11,Mayores de 65 anos,8
34,Formosa,11,Mayores de 65 anos,1
34,Formosa,11,Mayores de 65 anos,2
34,Formosa,11,Mayores de 65 anos,1
34,Formosa,2,Posneonato (29 hasta 365 dias),1
34,Formosa,2,Posneonato (29 hasta 365 dias),1
34,Formosa,2,Posneonato (29 hasta 365 dias),1
38,Jujuy,6,De 10 a 14 anos,2
38,Jujuy,6,De 10 a 14 anos,1
38,Jujuy,6,De 10 a 14 anos,1
38,Jujuy,6,De 10 a 14 anos,4
38,Jujuy,6,De 10 a 14 anos,5
38,Jujuy,6,De 10 a 14 anos,1
38,Jujuy,6,De 10 a 14 anos,1
38,Jujuy,6,De 10 a 14 anos,1
38,Jujuy,6,De 10 a 14 anos,1
38,Jujuy,7,De 15 a 19 anos,2
38,Jujuy,7,De 15 a 19 anos,1
38,Jujuy,7,De 15 a 19 anos,2
38,Jujuy,7,De 15 a 19 anos,1
38,Jujuy,7,De 15 a 19 anos,1
38,Jujuy,7,De 15 a 19 anos,1
38,Jujuy,7,De 15 a 19 anos,1
38,Jujuy,7,De 15 a 19 anos,5
38,Jujuy,7,De 15 a 19 anos,1
38,Jujuy,7,De 15 a 19 anos,1
38,Jujuy,7,De 15 a 19 anos,1
38,Jujuy,7,De 15 a 19 anos,1
38,Jujuy,7,De 15 a 19 anos,1
38,Jujuy,7,De 15 a 19 anos,1
38,Jujuy,4,De 2 a 4 anos,1
38,Jujuy,8,De 20 a 24 anos,1
38,Jujuy,8,De 20 a 24 anos,3
38,Jujuy,8,De 20 a 24 anos,3
38,Jujuy,8,De 20 a 24 anos,3
38,Jujuy,8,De 20 a 24 anos,3
38,Jujuy,8,De 20 a 24 anos,1
38,Jujuy,8,De 20 a 24 anos,1
38,Jujuy,8,De 20 a 24 anos,1
38,Jujuy,8,De 20 a 24 anos,1
38,Jujuy,9,De 25 a 34 anos,1
38,Jujuy,9,De 25 a 34 anos,2
38,Jujuy,9,De 25 a 34 anos,1
38,Jujuy,9,De 25 a 34 anos,4
38,Jujuy,9,De 25 a 34 anos,1
38,Jujuy,9,De 25 a 34 anos,2
38,Jujuy,9,De 25 a 34 anos,1
38,Jujuy,9,De 25 a 34 anos,4
38,Jujuy,9,De 25 a 34 anos,6
38,Jujuy,9,De 25 a 34 anos,5
38,Jujuy,9,De 25 a 34 anos,3
38,Jujuy,9,De 25 a 34 anos,1
38,Jujuy,9,De 25 a 34 anos,2
38,Jujuy,9,De 25 a 34 anos,4
38,Jujuy,9,De 25 a 34 anos,6
38,Jujuy,9,De 25 a 34 anos,1
38,Jujuy,9,De 25 a 34 anos,2
38,Jujuy,9,De 25 a 34 anos,2
38,Jujuy,9,De 35 a 44 anos,1
38,Jujuy,9,De 35 a 44 anos,1
38,Jujuy,9,De 35 a 44 anos,3
38,Jujuy,9,De 35 a 44 anos,1
38,Jujuy,9,De 35 a 44 anos,1
38,Jujuy,9,De 35 a 44 anos,3
38,Jujuy,9,De 35 a 44 anos,7
38,Jujuy,9,De 35 a 44 anos,3
38,Jujuy,9,De 35 a 44 anos,1
38,Jujuy,9,De 35 a 44 anos,1
38,Jujuy,9,De 35 a 44 anos,1
38,Jujuy,9,De 35 a 44 anos,1
38,Jujuy,9,De 35 a 44 anos,1
38,Jujuy,9,De 35 a 44 anos,2
38,Jujuy,9,De 35 a 44 anos,1
38,Jujuy,9,De 35 a 44 anos,6
38,Jujuy,9,De 35 a 44 anos,2
38,Jujuy,9,De 35 a 44 anos,2
38,Jujuy,9,De 35 a 44 anos,1
38,Jujuy,10,De 45 a 65 anos,1
38,Jujuy,10,De 45 a 65 anos,1
38,Jujuy,10,De 45 a 65 anos,3
38,Jujuy,10,De 45 a 65 anos,2
38,Jujuy,10,De 45 a 65 anos,2
38,Jujuy,10,De 45 a 65 anos,5
38,Jujuy,10,De 45 a 65 anos,6
38,Jujuy,10,De 45 a 65 anos,2
38,Jujuy,10,De 45 a 65 anos,4
38,Jujuy,10,De 45 a 65 anos,1
38,Jujuy,10,De 45 a 65 anos,1
38,Jujuy,10,De 45 a 65 anos,1
38,Jujuy,10,De 45 a 65 anos,1
38,Jujuy,10,De 45 a 65 anos,2
38,Jujuy,10,De 45 a 65 anos,2
38,Jujuy,10,De 45 a 65 anos,1
38,Jujuy,5,De 5 a 9 anos,2
38,Jujuy,5,De 5 a 9 anos,1
38,Jujuy,5,De 5 a 9 anos,1
38,Jujuy,11,Mayores de 65 anos,1
38,Jujuy,11,Mayores de 65 anos,1
38,Jujuy,11,Mayores de 65 anos,2
38,Jujuy,11,Mayores de 65 anos,1
38,Jujuy,11,Mayores de 65 anos,1
38,Jujuy,11,Mayores de 65 anos,1
38,Jujuy,11,Mayores de 65 anos,1
42,La Pampa,7,De 15 a 19 anos,1
46,La Rioja,6,De 10 a 14 anos,1
46,La Rioja,6,De 10 a 14 anos,1
46,La Rioja,6,De 10 a 14 anos,3
46,La Rioja,6,De 10 a 14 anos,2
46,La Rioja,6,De 10 a 14 anos,5
46,La Rioja,6,De 10 a 14 anos,4
46,La Rioja,6,De 10 a 14 anos,6
46,La Rioja,6,De 10 a 14 anos,7
46,La Rioja,6,De 10 a 14 anos,8
46,La Rioja,6,De 10 a 14 anos,10
46,La Rioja,6,De 10 a 14 anos,8
46,La Rioja,6,De 10 a 14 anos,17
46,La Rioja,6,De 10 a 14 anos,6
46,La Rioja,6,De 10 a 14 anos,2
46,La Rioja,6,De 10 a 14 anos,2
46,La Rioja,6,De 10 a 14 anos,1
46,La Rioja,3,De 13 a 24 meses,1
46,La Rioja,7,De 15 a 19 anos,1
46,La Rioja,7,De 15 a 19 anos,1
46,La Rioja,7,De 15 a 19 anos,3
46,La Rioja,7,De 15 a 19 anos,1
46,La Rioja,7,De 15 a 19 anos,10
46,La Rioja,7,De 15 a 19 anos,8
46,La Rioja,7,De 15 a 19 anos,4
46,La Rioja,7,De 15 a 19 anos,4
46,La Rioja,7,De 15 a 19 anos,10
46,La Rioja,7,De 15 a 19 anos,12
46,La Rioja,7,De 15 a 19 anos,19
46,La Rioja,7,De 15 a 19 anos,13
46,La Rioja,7,De 15 a 19 anos,17
46,La Rioja,7,De 15 a 19 anos,12
46,La Rioja,7,De 15 a 19 anos,5
46,La Rioja,7,De 15 a 19 anos,3
46,La Rioja,7,De 15 a 19 anos,1
46,La Rioja,7,De 15 a 19 anos,1
46,La Rioja,7,De 15 a 19 anos,1
46,La Rioja,7,De 15 a 19 anos,1
46,La Rioja,7,De 15 a 19 anos,1
46,La Rioja,4,De 2 a 4 anos,1
46,La Rioja,4,De 2 a 4 anos,3
46,La Rioja,4,De 2 a 4 anos,1
46,La Rioja,8,De 20 a 24 anos,1
46,La Rioja,8,De 20 a 24 anos,1
46,La Rioja,8,De 20 a 24 anos,1
46,La Rioja,8,De 20 a 24 anos,2
46,La Rioja,8,De 20 a 24 anos,1
46,La Rioja,8,De 20 a 24 anos,1
46,La Rioja,8,De 20 a 24 anos,9
46,La Rioja,8,De 20 a 24 anos,5
46,La Rioja,8,De 20 a 24 anos,5
46,La Rioja,8,De 20 a 24 anos,5
46,La Rioja,8,De 20 a 24 anos,10
46,La Rioja,8,De 20 a 24 anos,15
46,La Rioja,8,De 20 a 24 anos,20
46,La Rioja,8,De 20 a 24 anos,17
46,La Rioja,8,De 20 a 24 anos,19
46,La Rioja,8,De 20 a 24 anos,15
46,La Rioja,8,De 20 a 24 anos,7
46,La Rioja,8,De 20 a 24 anos,4
46,La Rioja,8,De 20 a 24 anos,1
46,La Rioja,8,De 20 a 24 anos,1
46,La Rioja,8,De 20 a 24 anos,1
46,La Rioja,8,De 20 a 24 anos,1
46,La Rioja,8,De 20 a 24 anos,1
46,La Rioja,8,De 20 a 24 anos,1
46,La Rioja,8,De 20 a 24 anos,1
46,La Rioja,9,De 25 a 34 anos,1
46,La Rioja,9,De 25 a 34 anos,1
46,La Rioja,9,De 25 a 34 anos,3
46,La Rioja,9,De 25 a 34 anos,4
46,La Rioja,9,De 25 a 34 anos,4
46,La Rioja,9,De 25 a 34 anos,5
46,La Rioja,9,De 25 a 34 anos,9
46,La Rioja,9,De 25 a 34 anos,7
46,La Rioja,9,De 25 a 34 anos,15
46,La Rioja,9,De 25 a 34 anos,15
46,La Rioja,9,De 25 a 34 anos,22
46,La Rioja,9,De 25 a 34 anos,38
46,La Rioja,9,De 25 a 34 anos,27
46,La Rioja,9,De 25 a 34 anos,30
46,La Rioja,9,De 25 a 34 anos,38
46,La Rioja,9,De 25 a 34 anos,28
46,La Rioja,9,De 25 a 34 anos,8
46,La Rioja,9,De 25 a 34 anos,5
46,La Rioja,9,De 25 a 34 anos,3
46,La Rioja,9,De 25 a 34 anos,1
46,La Rioja,9,De 25 a 34 anos,1
46,La Rioja,9,De 25 a 34 anos,1
46,La Rioja,9,De 25 a 34 anos,2
46,La Rioja,9,De 25 a 34 anos,2
46,La Rioja,9,De 35 a 44 anos,2
46,La Rioja,9,De 35 a 44 anos,1
46,La Rioja,9,De 35 a 44 anos,2
46,La Rioja,9,De 35 a 44 anos,1
46,La Rioja,9,De 35 a 44 anos,3
46,La Rioja,9,De 35 a 44 anos,2
46,La Rioja,9,De 35 a 44 anos,7
46,La Rioja,9,De 35 a 44 anos,13
46,La Rioja,9,De 35 a 44 anos,12
46,La Rioja,9,De 35 a 44 anos,14
46,La Rioja,9,De 35 a 44 anos,22
46,La Rioja,9,De 35 a 44 anos,13
46,La Rioja,9,De 35 a 44 anos,17
46,La Rioja,9,De 35 a 44 anos,26
46,La Rioja,9,De 35 a 44 anos,24
46,La Rioja,9,De 35 a 44 anos,27
46,La Rioja,9,De 35 a 44 anos,8
46,La Rioja,9,De 35 a 44 anos,5
46,La Rioja,9,De 35 a 44 anos,2
46,La Rioja,9,De 35 a 44 anos,1
46,La Rioja,9,De 35 a 44 anos,1
46,La Rioja,10,De 45 a 65 anos,1
46,La Rioja,10,De 45 a 65 anos,1
46,La Rioja,10,De 45 a 65 anos,1
46,La Rioja,10,De 45 a 65 anos,4
46,La Rioja,10,De 45 a 65 anos,5
46,La Rioja,10,De 45 a 65 anos,3
46,La Rioja,10,De 45 a 65 anos,10
46,La Rioja,10,De 45 a 65 anos,10
46,La Rioja,10,De 45 a 65 anos,16
46,La Rioja,10,De 45 a 65 anos,19
46,La Rioja,10,De 45 a 65 anos,11
46,La Rioja,10,De 45 a 65 anos,11
46,La Rioja,10,De 45 a 65 anos,25
46,La Rioja,10,De 45 a 65 anos,34
46,La Rioja,10,De 45 a 65 anos,29
46,La Rioja,10,De 45 a 65 anos,37
46,La Rioja,10,De 45 a 65 anos,26
46,La Rioja,10,De 45 a 65 anos,9
46,La Rioja,10,De 45 a 65 anos,5
46,La Rioja,10,De 45 a 65 anos,1
46,La Rioja,10,De 45 a 65 anos,1
46,La Rioja,10,De 45 a 65 anos,1
46,La Rioja,10,De 45 a 65 anos,1
46,La Rioja,10,De 45 a 65 anos,1
46,La Rioja,10,De 45 a 65 anos,1
46,La Rioja,10,De 45 a 65 anos,1
46,La Rioja,10,De 45 a 65 anos,1
46,La Rioja,10,De 45 a 65 anos,1
46,La Rioja,10,De 45 a 65 anos,1
46,La Rioja,10,De 45 a 65 anos,1
46,La Rioja,5,De 5 a 9 anos,1
46,La Rioja,5,De 5 a 9 anos,2
46,La Rioja,5,De 5 a 9 anos,2
46,La Rioja,5,De 5 a 9 anos,1
46,La Rioja,5,De 5 a 9 anos,1
46,La Rioja,5,De 5 a 9 anos,4
46,La Rioja,5,De 5 a 9 anos,4
46,La Rioja,5,De 5 a 9 anos,3
46,La Rioja,5,De 5 a 9 anos,6
46,La Rioja,5,De 5 a 9 anos,3
46,La Rioja,5,De 5 a 9 anos,2
46,La Rioja,5,De 5 a 9 anos,1
46,La Rioja,11,Mayores de 65 anos,1
46,La Rioja,11,Mayores de 65 anos,1
46,La Rioja,11,Mayores de 65 anos,3
46,La Rioja,11,Mayores de 65 anos,3
46,La Rioja,11,Mayores de 65 anos,8
46,La Rioja,11,Mayores de 65 anos,3
46,La Rioja,11,Mayores de 65 anos,6
46,La Rioja,11,Mayores de 65 anos,12
46,La Rioja,11,Mayores de 65 anos,2
46,La Rioja,11,Mayores de 65 anos,1
46,La Rioja,11,Mayores de 65 anos,9
46,La Rioja,11,Mayores de 65 anos,5
46,La Rioja,11,Mayores de 65 anos,1
46,La Rioja,11,Mayores de 65 anos,1
46,La Rioja,11,Mayores de 65 anos,1
46,La Rioja,11,Mayores de 65 anos,1
46,La Rioja,2,Posneonato (29 hasta 365 dias),1
50,Mendoza,9,De 25 a 34 anos,1
54,Misiones,6,De 10 a 14 anos,1
54,Misiones,6,De 10 a 14 anos,1
54,Misiones,6,De 10 a 14 anos,1
54,Misiones,6,De 10 a 14 anos,2
54,Misiones,6,De 10 a 14 anos,1
54,Misiones,6,De 10 a 14 anos,1
54,Misiones,6,De 10 a 14 anos,2
54,Misiones,6,De 10 a 14 anos,1
54,Misiones,6,De 10 a 14 anos,1
54,Misiones,6,De 10 a 14 anos,1
54,Misiones,7,De 15 a 19 anos,1
54,Misiones,7,De 15 a 19 anos,1
54,Misiones,7,De 15 a 19 anos,1
54,Misiones,7,De 15 a 19 anos,2
54,Misiones,7,De 15 a 19 anos,1
54,Misiones,7,De 15 a 19 anos,2
54,Misiones,7,De 15 a 19 anos,1
54,Misiones,7,De 15 a 19 anos,1
54,Misiones,7,De 15 a 19 anos,1
54,Misiones,4,De 2 a 4 anos,2
54,Misiones,4,De 2 a 4 anos,1
54,Misiones,8,De 20 a 24 anos,1
54,Misiones,8,De 20 a 24 anos,1
54,Misiones,8,De 20 a 24 anos,1
54,Misiones,8,De 20 a 24 anos,1
54,Misiones,8,De 20 a 24 anos,1
54,Misiones,8,De 20 a 24 anos,3
54,Misiones,8,De 20 a 24 anos,1
54,Misiones,8,De 20 a 24 anos,1
54,Misiones,8,De 20 a 24 anos,1
54,Misiones,8,De 20 a 24 anos,1
54,Misiones,8,De 20 a 24 anos,1
54,Misiones,8,De 20 a 24 anos,1
54,Misiones,8,De 20 a 24 anos,1
54,Misiones,9,De 25 a 34 anos,1
54,Misiones,9,De 25 a 34 anos,1
54,Misiones,9,De 25 a 34 anos,1
54,Misiones,9,De 25 a 34 anos,2
54,Misiones,9,De 25 a 34 anos,1
54,Misiones,9,De 25 a 34 anos,7
54,Misiones,9,De 25 a 34 anos,2
54,Misiones,9,De 25 a 34 anos,1
54,Misiones,9,De 25 a 34 anos,1
54,Misiones,9,De 25 a 34 anos,1
54,Misiones,9,De 25 a 34 anos,1
54,Misiones,9,De 25 a 34 anos,1
54,Misiones,9,De 25 a 34 anos,3
54,Misiones,9,De 25 a 34 anos,1
54,Misiones,9,De 25 a 34 anos,1
54,Misiones,9,De 25 a 34 anos,1
54,Misiones,9,De 25 a 34 anos,1
54,Misiones,9,De 25 a 34 anos,1
54,Misiones,9,De 25 a 34 anos,1
54,Misiones,9,De 25 a 34 anos,1
54,Misiones,9,De 35 a 44 anos,1
54,Misiones,9,De 35 a 44 anos,1
54,Misiones,9,De 35 a 44 anos,2
54,Misiones,9,De 35 a 44 anos,3
54,Misiones,9,De 35 a 44 anos,4
54,Misiones,9,De 35 a 44 anos,2
54,Misiones,9,De 35 a 44 anos,1
54,Misiones,9,De 35 a 44 anos,4
54,Misiones,9,De 35 a 44 anos,1
54,Misiones,9,De 35 a 44 anos,1
54,Misiones,9,De 35 a 44 anos,1
54,Misiones,9,De 35 a 44 anos,1
54,Misiones,9,De 35 a 44 anos,1
54,Misiones,9,De 35 a 44 anos,1
54,Misiones,9,De 35 a 44 anos,2
54,Misiones,9,De 35 a 44 anos,1
54,Misiones,10,De 45 a 65 anos,1
54,Misiones,10,De 45 a 65 anos,1
54,Misiones,10,De 45 a 65 anos,2
54,Misiones,10,De 45 a 65 anos,1
54,Misiones,10,De 45 a 65 anos,1
54,Misiones,10,De 45 a 65 anos,2
54,Misiones,10,De 45 a 65 anos,1
54,Misiones,10,De 45 a 65 anos,1
54,Misiones,10,De 45 a 65 anos,1
54,Misiones,10,De 45 a 65 anos,1
54,Misiones,5,De 5 a 9 anos,1
54,Misiones,5,De 5 a 9 anos,1
54,Misiones,5,De 5 a 9 anos,1
54,Misiones,5,De 5 a 9 anos,2
54,Misiones,5,De 5 a 9 anos,1
54,Misiones,11,Mayores de 65 anos,1
54,Misiones,11,Mayores de 65 anos,1
54,Misiones,11,Mayores de 65 anos,1
54,Misiones,11,Mayores de 65 anos,1
54,Misiones,11,Mayores de 65 anos,1
54,Misiones,11,Mayores de 65 anos,1
54,Misiones,2,Posneonato (29 hasta 365 dias),1
66,Salta,6,De 10 a 14 anos,4
66,Salta,6,De 10 a 14 anos,5
66,Salta,6,De 10 a 14 anos,2
66,Salta,6,De 10 a 14 anos,1
66,Salta,6,De 10 a 14 anos,9
66,Salta,6,De 10 a 14 anos,8
66,Salta,6,De 10 a 14 anos,5
66,Salta,6,De 10 a 14 anos,4
66,Salta,7,De 15 a 19 anos,6
66,Salta,7,De 15 a 19 anos,5
66,Salta,7,De 15 a 19 anos,4
66,Salta,7,De 15 a 19 anos,1
66,Salta,7,De 15 a 19 anos,5
66,Salta,7,De 15 a 19 anos,8
66,Salta,7,De 15 a 19 anos,4
66,Salta,7,De 15 a 19 anos,2
66,Salta,7,De 15 a 19 anos,2
66,Salta,7,De 15 a 19 anos,1
66,Salta,7,De 15 a 19 anos,6
66,Salta,7,De 15 a 19 anos,1
66,Salta,7,De 15 a 19 anos,4
66,Salta,7,De 15 a 19 anos,1
66,Salta,8,De 20 a 24 anos,7
66,Salta,8,De 20 a 24 anos,5
66,Salta,8,De 20 a 24 anos,1
66,Salta,8,De 20 a 24 anos,1
66,Salta,8,De 20 a 24 anos,10
66,Salta,8,De 20 a 24 anos,3
66,Salta,8,De 20 a 24 anos,3
66,Salta,9,De 25 a 34 anos,1
66,Salta,9,De 25 a 34 anos,3
66,Salta,9,De 25 a 34 anos,1
66,Salta,9,De 25 a 34 anos,1
66,Salta,9,De 25 a 34 anos,16
66,Salta,9,De 25 a 34 anos,10
66,Salta,9,De 25 a 34 anos,1
66,Salta,9,De 25 a 34 anos,1
66,Salta,9,De 25 a 34 anos,1
66,Salta,9,De 25 a 34 anos,2
66,Salta,9,De 25 a 34 anos,4
66,Salta,9,De 25 a 34 anos,2
66,Salta,9,De 25 a 34 anos,5
66,Salta,9,De 35 a 44 anos,8
66,Salta,9,De 35 a 44 anos,3
66,Salta,9,De 35 a 44 anos,4
66,Salta,9,De 35 a 44 anos,4
66,Salta,9,De 35 a 44 anos,8
66,Salta,9,De 35 a 44 anos,4
66,Salta,9,De 35 a 44 anos,6
66,Salta,9,De 35 a 44 anos,3
66,Salta,9,De 35 a 44 anos,5
66,Salta,9,De 35 a 44 anos,5
66,Salta,9,De 35 a 44 anos,2
66,Salta,9,De 35 a 44 anos,3
66,Salta,9,De 35 a 44 anos,6
66,Salta,9,De 35 a 44 anos,8
66,Salta,9,De 35 a 44 anos,3
66,Salta,9,De 35 a 44 anos,1
66,Salta,10,De 45 a 64 anos,2
66,Salta,10,De 45 a 64 anos,3
66,Salta,10,De 45 a 64 anos,2
66,Salta,10,De 45 a 64 anos,1
66,Salta,10,De 45 a 64 anos,5
66,Salta,10,De 45 a 64 anos,7
66,Salta,10,De 45 a 64 anos,4
66,Salta,5,De 5 a 9 anos,4
66,Salta,5,De 5 a 9 anos,1
66,Salta,5,De 5 a 9 anos,2
66,Salta,5,De 5 a 9 anos,2
66,Salta,5,De 5 a 9 anos,8
66,Salta,5,De 5 a 9 anos,12
66,Salta,5,De 5 a 9 anos,5
66,Salta,11,Mayores de 65 anos,2
66,Salta,11,Mayores de 65 anos,2
66,Salta,11,Mayores de 65 anos,2
66,Salta,11,Mayores de 65 anos,1
66,Salta,11,Mayores de 65 anos,2
66,Salta,2,Posneonato (29 hasta 365 dias),2
66,Salta,2,Posneonato (29 hasta 365 dias),1
66,Salta,2,Posneonato (29 hasta 365 dias),2
66,Salta,6,De 10 a 14 anos,2
66,Salta,6,De 10 a 14 anos,2
66,Salta,6,De 10 a 14 anos,4
66,Salta,6,De 10 a 14 anos,2
66,Salta,6,De 10 a 14 anos,1
66,Salta,6,De 10 a 14 anos,1
66,Salta,6,De 10 a 14 anos,1
66,Salta,6,De 10 a 14 anos,1
66,Salta,6,De 10 a 14 anos,2
66,Salta,6,De 10 a 14 anos,4
66,Salta,6,De 10 a 14 anos,1
66,Salta,6,De 10 a 14 anos,2
66,Salta,6,De 10 a 14 anos,5
66,Salta,6,De 10 a 14 anos,2
66,Salta,6,De 10 a 14 anos,4
66,Salta,6,De 10 a 14 anos,9
66,Salta,6,De 10 a 14 anos,9
66,Salta,6,De 10 a 14 anos,1
66,Salta,6,De 10 a 14 anos,2
66,Salta,6,De 10 a 14 anos,5
66,Salta,6,De 10 a 14 anos,1
66,Salta,6,De 10 a 14 anos,1
66,Salta,6,De 10 a 14 anos,1
66,Salta,6,De 10 a 14 anos,1
66,Salta,6,De 10 a 14 anos,4
66,Salta,6,De 10 a 14 anos,1
66,Salta,6,De 10 a 14 anos,2
66,Salta,6,De 10 a 14 anos,1
66,Salta,6,De 10 a 14 anos,1
66,Salta,6,De 10 a 14 anos,3
66,Salta,6,De 10 a 14 anos,4
66,Salta,6,De 10 a 14 anos,8
66,Salta,6,De 10 a 14 anos,10
66,Salta,6,De 10 a 14 anos,5
66,Salta,6,De 10 a 14 anos,14
66,Salta,6,De 10 a 14 anos,17
66,Salta,6,De 10 a 14 anos,11
66,Salta,6,De 10 a 14 anos,11
66,Salta,6,De 10 a 14 anos,8
66,Salta,6,De 10 a 14 anos,1
66,Salta,6,De 10 a 14 anos,2
66,Salta,6,De 10 a 14 anos,1
66,Salta,6,De 10 a 14 anos,1
66,Salta,6,De 10 a 14 anos,1
66,Salta,6,De 10 a 14 anos,1
66,Salta,6,De 10 a 14 anos,3
66,Salta,6,De 10 a 14 anos,2
66,Salta,6,De 10 a 14 anos,2
66,Salta,6,De 10 a 14 anos,1
66,Salta,6,De 10 a 14 anos,1
66,Salta,6,De 10 a 14 anos,1
66,Salta,3,De 13 a 24 meses,1
66,Salta,3,De 13 a 24 meses,2
66,Salta,3,De 13 a 24 meses,1
66,Salta,3,De 13 a 24 meses,2
66,Salta,3,De 13 a 24 meses,1
66,Salta,3,De 13 a 24 meses,1
66,Salta,3,De 13 a 24 meses,1
66,Salta,3,De 13 a 24 meses,1
66,Salta,3,De 13 a 24 meses,1
66,Salta,7,De 15 a 19 anos,1
66,Salta,7,De 15 a 19 anos,1
66,Salta,7,De 15 a 19 anos,4
66,Salta,7,De 15 a 19 anos,4
66,Salta,7,De 15 a 19 anos,1
66,Salta,7,De 15 a 19 anos,2
66,Salta,7,De 15 a 19 anos,3
66,Salta,7,De 15 a 19 anos,1
66,Salta,7,De 15 a 19 anos,5
66,Salta,7,De 15 a 19 anos,2
66,Salta,7,De 15 a 19 anos,1
66,Salta,7,De 15 a 19 anos,1
66,Salta,7,De 15 a 19 anos,2
66,Salta,7,De 15 a 19 anos,5
66,Salta,7,De 15 a 19 anos,3
66,Salta,7,De 15 a 19 anos,6
66,Salta,7,De 15 a 19 anos,2
66,Salta,7,De 15 a 19 anos,2
66,Salta,7,De 15 a 19 anos,1
66,Salta,7,De 15 a 19 anos,2
66,Salta,7,De 15 a 19 anos,2
66,Salta,7,De 15 a 19 anos,1
66,Salta,7,De 15 a 19 anos,1
66,Salta,7,De 15 a 19 anos,1
66,Salta,7,De 15 a 19 anos,3
66,Salta,7,De 15 a 19 anos,2
66,Salta,7,De 15 a 19 anos,2
66,Salta,7,De 15 a 19 anos,3
66,Salta,7,De 15 a 19 anos,1
66,Salta,7,De 15 a 19 anos,5
66,Salta,7,De 15 a 19 anos,5
66,Salta,7,De 15 a 19 anos,3
66,Salta,7,De 15 a 19 anos,3
66,Salta,7,De 15 a 19 anos,5
66,Salta,7,De 15 a 19 anos,3
66,Salta,7,De 15 a 19 anos,5
66,Salta,7,De 15 a 19 anos,2
66,Salta,7,De 15 a 19 anos,1
66,Salta,7,De 15 a 19 anos,13
66,Salta,7,De 15 a 19 anos,7
66,Salta,7,De 15 a 19 anos,15
66,Salta,7,De 15 a 19 anos,6
66,Salta,7,De 15 a 19 anos,5
66,Salta,7,De 15 a 19 anos,1
66,Salta,7,De 15 a 19 anos,2
66,Salta,7,De 15 a 19 anos,3
66,Salta,7,De 15 a 19 anos,2
66,Salta,7,De 15 a 19 anos,1
66,Salta,7,De 15 a 19 anos,3
66,Salta,7,De 15 a 19 anos,1
66,Salta,7,De 15 a 19 anos,2
66,Salta,7,De 15 a 19 anos,1
66,Salta,4,De 2 a 4 anos,1
66,Salta,4,De 2 a 4 anos,1
66,Salta,4,De 2 a 4 anos,1
66,Salta,4,De 2 a 4 anos,1
66,Salta,4,De 2 a 4 anos,1
66,Salta,4,De 2 a 4 anos,1
66,Salta,4,De 2 a 4 anos,1
66,Salta,4,De 2 a 4 anos,1
66,Salta,4,De 2 a 4 anos,2
66,Salta,4,De 2 a 4 anos,2
66,Salta,4,De 2 a 4 anos,3
66,Salta,4,De 2 a 4 anos,5
66,Salta,4,De 2 a 4 anos,1
66,Salta,4,De 2 a 4 anos,2
66,Salta,4,De 2 a 4 anos,1
66,Salta,4,De 2 a 4 anos,1
66,Salta,4,De 2 a 4 anos,1
66,Salta,4,De 2 a 4 anos,1
66,Salta,4,De 2 a 4 anos,1
66,Salta,4,De 2 a 4 anos,2
66,Salta,4,De 2 a 4 anos,3
66,Salta,4,De 2 a 4 anos,4
66,Salta,4,De 2 a 4 anos,5
66,Salta,4,De 2 a 4 anos,1
66,Salta,4,De 2 a 4 anos,1
66,Salta,4,De 2 a 4 anos,1
66,Salta,4,De 2 a 4 anos,2
66,Salta,8,De 20 a 24 anos,1
66,Salta,8,De 20 a 24 anos,2
66,Salta,8,De 20 a 24 anos,3
66,Salta,8,De 20 a 24 anos,1
66,Salta,8,De 20 a 24 anos,7
66,Salta,8,De 20 a 24 anos,3
66,Salta,8,De 20 a 24 anos,2
66,Salta,8,De 20 a 24 anos,3
66,Salta,8,De 20 a 24 anos,2
66,Salta,8,De 20 a 24 anos,1
66,Salta,8,De 20 a 24 anos,1
66,Salta,8,De 20 a 24 anos,3
66,Salta,8,De 20 a 24 anos,3
66,Salta,8,De 20 a 24 anos,1
66,Salta,8,De 20 a 24 anos,1
66,Salta,8,De 20 a 24 anos,5
66,Salta,8,De 20 a 24 anos,1
66,Salta,8,De 20 a 24 anos,1
66,Salta,8,De 20 a 24 anos,2
66,Salta,8,De 20 a 24 anos,2
66,Salta,8,De 20 a 24 anos,4
66,Salta,8,De 20 a 24 anos,5
66,Salta,8,De 20 a 24 anos,5
66,Salta,8,De 20 a 24 anos,3
66,Salta,8,De 20 a 24 anos,2
66,Salta,8,De 20 a 24 anos,1
66,Salta,8,De 20 a 24 anos,1
66,Salta,8,De 20 a 24 anos,5
66,Salta,8,De 20 a 24 anos,3
66,Salta,8,De 20 a 24 anos,1
66,Salta,8,De 20 a 24 anos,5
66,Salta,8,De 20 a 24 anos,2
66,Salta,8,De 20 a 24 anos,6
66,Salta,8,De 20 a 24 anos,7
66,Salta,8,De 20 a 24 anos,4
66,Salta,8,De 20 a 24 anos,4
66,Salta,8,De 20 a 24 anos,6
66,Salta,8,De 20 a 24 anos,4
66,Salta,8,De 20 a 24 anos,2
66,Salta,8,De 20 a 24 anos,11
66,Salta,8,De 20 a 24 anos,5
66,Salta,8,De 20 a 24 anos,5
66,Salta,8,De 20 a 24 anos,6
66,Salta,8,De 20 a 24 anos,10
66,Salta,8,De 20 a 24 anos,7
66,Salta,8,De 20 a 24 anos,2
66,Salta,8,De 20 a 24 anos,1
66,Salta,8,De 20 a 24 anos,2
66,Salta,8,De 20 a 24 anos,1
66,Salta,8,De 20 a 24 anos,3
66,Salta,8,De 20 a 24 anos,4
66,Salta,8,De 20 a 24 anos,3
66,Salta,8,De 20 a 24 anos,1
66,Salta,8,De 20 a 24 anos,3
66,Salta,8,De 20 a 24 anos,1
66,Salta,9,De 25 a 34 anos,1
66,Salta,9,De 25 a 34 anos,4
66,Salta,9,De 25 a 34 anos,1
66,Salta,9,De 25 a 34 anos,3
66,Salta,9,De 25 a 34 anos,4
66,Salta,9,De 25 a 34 anos,2
66,Salta,9,De 25 a 34 anos,10
66,Salta,9,De 25 a 34 anos,4
66,Salta,9,De 25 a 34 anos,2
66,Salta,9,De 25 a 34 anos,8
66,Salta,9,De 25 a 34 anos,3
66,Salta,9,De 25 a 34 anos,1
66,Salta,9,De 25 a 34 anos,1
66,Salta,9,De 25 a 34 anos,1
66,Salta,9,De 25 a 34 anos,1
66,Salta,9,De 25 a 34 anos,1
66,Salta,9,De 25 a 34 anos,1
66,Salta,9,De 25 a 34 anos,1
66,Salta,9,De 25 a 34 anos,1
66,Salta,9,De 25 a 34 anos,1
66,Salta,9,De 25 a 34 anos,3
66,Salta,9,De 25 a 34 anos,1
66,Salta,9,De 25 a 34 anos,1
66,Salta,9,De 25 a 34 anos,2
66,Salta,9,De 25 a 34 anos,1
66,Salta,9,De 25 a 34 anos,3
66,Salta,9,De 25 a 34 anos,2
66,Salta,9,De 25 a 34 anos,2
66,Salta,9,De 25 a 34 anos,7
66,Salta,9,De 25 a 34 anos,7
66,Salta,9,De 25 a 34 anos,6
66,Salta,9,De 25 a 34 anos,1
66,Salta,9,De 25 a 34 anos,1
66,Salta,9,De 25 a 34 anos,1
66,Salta,9,De 25 a 34 anos,3
66,Salta,9,De 25 a 34 anos,1
66,Salta,9,De 25 a 34 anos,2
66,Salta,9,De 25 a 34 anos,1
66,Salta,9,De 25 a 34 anos,1
66,Salta,9,De 25 a 34 anos,3
66,Salta,9,De 25 a 34 anos,6
66,Salta,9,De 25 a 34 anos,9
66,Salta,9,De 25 a 34 anos,10
66,Salta,9,De 25 a 34 anos,1
66,Salta,9,De 25 a 34 anos,2
66,Salta,9,De 25 a 34 anos,9
66,Salta,9,De 25 a 34 anos,2
66,Salta,9,De 25 a 34 anos,6
66,Salta,9,De 25 a 34 anos,10
66,Salta,9,De 25 a 34 anos,7
66,Salta,9,De 25 a 34 anos,10
66,Salta,9,De 25 a 34 anos,13
66,Salta,9,De 25 a 34 anos,19
66,Salta,9,De 25 a 34 anos,22
66,Salta,9,De 25 a 34 anos,22
66,Salta,9,De 25 a 34 anos,14
66,Salta,9,De 25 a 34 anos,11
66,Salta,9,De 25 a 34 anos,8
66,Salta,9,De 25 a 34 anos,2
66,Salta,9,De 25 a 34 anos,1
66,Salta,9,De 25 a 34 anos,2
66,Salta,9,De 25 a 34 anos,2
66,Salta,9,De 25 a 34 anos,3
66,Salta,9,De 25 a 34 anos,5
66,Salta,9,De 25 a 34 anos,9
66,Salta,9,De 25 a 34 anos,3
66,Salta,9,De 25 a 34 anos,2
66,Salta,9,De 25 a 34 anos,2
66,Salta,9,De 25 a 34 anos,1
66,Salta,9,De 25 a 34 anos,1
66,Salta,9,De 35 a 44 anos,3
66,Salta,9,De 35 a 44 anos,4
66,Salta,9,De 35 a 44 anos,3
66,Salta,9,De 35 a 44 anos,2
66,Salta,9,De 35 a 44 anos,5
66,Salta,9,De 35 a 44 anos,7
66,Salta,9,De 35 a 44 anos,10
66,Salta,9,De 35 a 44 anos,2
66,Salta,9,De 35 a 44 anos,5
66,Salta,9,De 35 a 44 anos,1
66,Salta,9,De 35 a 44 anos,2
66,Salta,9,De 35 a 44 anos,1
66,Salta,9,De 35 a 44 anos,1
66,Salta,9,De 35 a 44 anos,1
66,Salta,9,De 35 a 44 anos,1
66,Salta,9,De 35 a 44 anos,1
66,Salta,9,De 35 a 44 anos,2
66,Salta,9,De 35 a 44 anos,5
66,Salta,9,De 35 a 44 anos,7
66,Salta,9,De 35 a 44 anos,5
66,Salta,9,De 35 a 44 anos,1
66,Salta,9,De 35 a 44 anos,2
66,Salta,9,De 35 a 44 anos,6
66,Salta,9,De 35 a 44 anos,1
66,Salta,9,De 35 a 44 anos,3
66,Salta,9,De 35 a 44 anos,1
66,Salta,9,De 35 a 44 anos,2
66,Salta,9,De 35 a 44 anos,1
66,Salta,9,De 35 a 44 anos,2
66,Salta,9,De 35 a 44 anos,3
66,Salta,9,De 35 a 44 anos,6
66,Salta,9,De 35 a 44 anos,2
66,Salta,9,De 35 a 44 anos,4
66,Salta,9,De 35 a 44 anos,4
66,Salta,9,De 35 a 44 anos,4
66,Salta,9,De 35 a 44 anos,1
66,Salta,9,De 35 a 44 anos,5
66,Salta,9,De 35 a 44 anos,11
66,Salta,9,De 35 a 44 anos,8
66,Salta,9,De 35 a 44 anos,8
66,Salta,9,De 35 a 44 anos,14
66,Salta,9,De 35 a 44 anos,18
66,Salta,9,De 35 a 44 anos,14
66,Salta,9,De 35 a 44 anos,19
66,Salta,9,De 35 a 44 anos,14
66,Salta,9,De 35 a 44 anos,3
66,Salta,9,De 35 a 44 anos,3
66,Salta,9,De 35 a 44 anos,1
66,Salta,9,De 35 a 44 anos,1
66,Salta,9,De 35 a 44 anos,1
66,Salta,9,De 35 a 44 anos,3
66,Salta,9,De 35 a 44 anos,3
66,Salta,9,De 35 a 44 anos,8
66,Salta,9,De 35 a 44 anos,1
66,Salta,9,De 35 a 44 anos,1
66,Salta,9,De 35 a 44 anos,1
66,Salta,9,De 35 a 44 anos,2
66,Salta,10,De 45 a 65 anos,1
66,Salta,10,De 45 a 65 anos,3
66,Salta,10,De 45 a 65 anos,3
66,Salta,10,De 45 a 65 anos,3
66,Salta,10,De 45 a 65 anos,5
66,Salta,10,De 45 a 65 anos,5
66,Salta,10,De 45 a 65 anos,5
66,Salta,10,De 45 a 65 anos,5
66,Salta,10,De 45 a 65 anos,2
66,Salta,10,De 45 a 65 anos,1
66,Salta,10,De 45 a 65 anos,2
66,Salta,10,De 45 a 65 anos,1
66,Salta,10,De 45 a 65 anos,1
66,Salta,10,De 45 a 65 anos,1
66,Salta,10,De 45 a 65 anos,2
66,Salta,10,De 45 a 65 anos,1
66,Salta,10,De 45 a 65 anos,1
66,Salta,10,De 45 a 65 anos,4
66,Salta,10,De 45 a 65 anos,11
66,Salta,10,De 45 a 65 anos,15
66,Salta,10,De 45 a 65 anos,6
66,Salta,10,De 45 a 65 anos,14
66,Salta,10,De 45 a 65 anos,1
66,Salta,10,De 45 a 65 anos,1
66,Salta,10,De 45 a 65 anos,7
66,Salta,10,De 45 a 65 anos,3
66,Salta,10,De 45 a 65 anos,1
66,Salta,10,De 45 a 65 anos,2
66,Salta,10,De 45 a 65 anos,1
66,Salta,10,De 45 a 65 anos,3
66,Salta,10,De 45 a 65 anos,4
66,Salta,10,De 45 a 65 anos,9
66,Salta,10,De 45 a 65 anos,2
66,Salta,10,De 45 a 65 anos,8
66,Salta,10,De 45 a 65 anos,12
66,Salta,10,De 45 a 65 anos,3
66,Salta,10,De 45 a 65 anos,9
66,Salta,10,De 45 a 65 anos,13
66,Salta,10,De 45 a 65 anos,8
66,Salta,10,De 45 a 65 anos,9
66,Salta,10,De 45 a 65 anos,11
66,Salta,10,De 45 a 65 anos,20
66,Salta,10,De 45 a 65 anos,16
66,Salta,10,De 45 a 65 anos,23
66,Salta,10,De 45 a 65 anos,27
66,Salta,10,De 45 a 65 anos,7
66,Salta,10,De 45 a 65 anos,3
66,Salta,10,De 45 a 65 anos,3
66,Salta,10,De 45 a 65 anos,1
66,Salta,10,De 45 a 65 anos,1
66,Salta,10,De 45 a 65 anos,8
66,Salta,10,De 45 a 65 anos,1
66,Salta,10,De 45 a 65 anos,1
66,Salta,10,De 45 a 65 anos,1
66,Salta,10,De 45 a 65 anos,4
66,Salta,5,De 5 a 9 anos,2
66,Salta,5,De 5 a 9 anos,3
66,Salta,5,De 5 a 9 anos,4
66,Salta,5,De 5 a 9 anos,1
66,Salta,5,De 5 a 9 anos,2
66,Salta,5,De 5 a 9 anos,1
66,Salta,5,De 5 a 9 anos,1
66,Salta,5,De 5 a 9 anos,1
66,Salta,5,De 5 a 9 anos,1
66,Salta,5,De 5 a 9 anos,2
66,Salta,5,De 5 a 9 anos,1
66,Salta,5,De 5 a 9 anos,1
66,Salta,5,De 5 a 9 anos,1
66,Salta,5,De 5 a 9 anos,4
66,Salta,5,De 5 a 9 anos,6
66,Salta,5,De 5 a 9 anos,1
66,Salta,5,De 5 a 9 anos,3
66,Salta,5,De 5 a 9 anos,4
66,Salta,5,De 5 a 9 anos,1
66,Salta,5,De 5 a 9 anos,1
66,Salta,5,De 5 a 9 anos,1
66,Salta,5,De 5 a 9 anos,2
66,Salta,5,De 5 a 9 anos,2
66,Salta,5,De 5 a 9 anos,1
66,Salta,5,De 5 a 9 anos,1
66,Salta,5,De 5 a 9 anos,2
66,Salta,5,De 5 a 9 anos,2
66,Salta,5,De 5 a 9 anos,1
66,Salta,5,De 5 a 9 anos,3
66,Salta,5,De 5 a 9 anos,3
66,Salta,5,De 5 a 9 anos,1
66,Salta,5,De 5 a 9 anos,2
66,Salta,5,De 5 a 9 anos,2
66,Salta,5,De 5 a 9 anos,5
66,Salta,5,De 5 a 9 anos,4
66,Salta,5,De 5 a 9 anos,3
66,Salta,5,De 5 a 9 anos,6
66,Salta,5,De 5 a 9 anos,6
66,Salta,5,De 5 a 9 anos,1
66,Salta,5,De 5 a 9 anos,2
66,Salta,5,De 5 a 9 anos,1
66,Salta,5,De 5 a 9 anos,1
66,Salta,5,De 5 a 9 anos,1
66,Salta,11,Mayores de 65 anos,1
66,Salta,11,Mayores de 65 anos,2
66,Salta,11,Mayores de 65 anos,1
66,Salta,11,Mayores de 65 anos,1
66,Salta,11,Mayores de 65 anos,1
66,Salta,11,Mayores de 65 anos,1
66,Salta,11,Mayores de 65 anos,1
66,Salta,11,Mayores de 65 anos,5
66,Salta,11,Mayores de 65 anos,2
66,Salta,11,Mayores de 65 anos,3
66,Salta,11,Mayores de 65 anos,2
66,Salta,11,Mayores de 65 anos,2
66,Salta,11,Mayores de 65 anos,1
66,Salta,11,Mayores de 65 anos,3
66,Salta,11,Mayores de 65 anos,1
66,Salta,11,Mayores de 65 anos,2
66,Salta,11,Mayores de 65 anos,2
66,Salta,11,Mayores de 65 anos,5
66,Salta,11,Mayores de 65 anos,4
66,Salta,11,Mayores de 65 anos,2
66,Salta,11,Mayores de 65 anos,1
66,Salta,11,Mayores de 65 anos,7
66,Salta,11,Mayores de 65 anos,2
66,Salta,11,Mayores de 65 anos,12
66,Salta,11,Mayores de 65 anos,6
66,Salta,11,Mayores de 65 anos,1
66,Salta,11,Mayores de 65 anos,1
66,Salta,11,Mayores de 65 anos,3
66,Salta,11,Mayores de 65 anos,2
66,Salta,11,Mayores de 65 anos,1
66,Salta,11,Mayores de 65 anos,1
66,Salta,11,Mayores de 65 anos,3
66,Salta,11,Mayores de 65 anos,1
66,Salta,11,Mayores de 65 anos,1
66,Salta,2,Posneonato (29 hasta 365 dias),1
66,Salta,2,Posneonato (29 hasta 365 dias),2
66,Salta,2,Posneonato (29 hasta 365 dias),1
66,Salta,2,Posneonato (29 hasta 365 dias),1
66,Salta,2,Posneonato (29 hasta 365 dias),1
66,Salta,2,Posneonato (29 hasta 365 dias),1
74,San Luis,7,De 15 a 19 anos,1
74,San Luis,7,De 15 a 19 anos,1
74,San Luis,8,De 20 a 24 anos,1
74,San Luis,9,De 25 a 34 anos,2
74,San Luis,9,De 25 a 34 anos,1
74,San Luis,5,De 5 a 9 anos,1
78,SAnta Cruz,9,De 35 a 44 anos,1
82,SAnta Fe,6,De 10 a 14 anos,1
82,SAnta Fe,7,De 15 a 19 anos,2
82,SAnta Fe,7,De 15 a 19 anos,1
82,SAnta Fe,7,De 15 a 19 anos,1
82,SAnta Fe,7,De 15 a 19 anos,1
82,SAnta Fe,7,De 15 a 19 anos,1
82,SAnta Fe,7,De 15 a 19 anos,1
82,SAnta Fe,7,De 15 a 19 anos,1
82,SAnta Fe,8,De 20 a 24 anos,2
82,SAnta Fe,8,De 20 a 24 anos,1
82,SAnta Fe,8,De 20 a 24 anos,1
82,SAnta Fe,9,De 25 a 34 anos,1
82,SAnta Fe,9,De 25 a 34 anos,3
82,SAnta Fe,9,De 25 a 34 anos,1
82,SAnta Fe,9,De 25 a 34 anos,1
82,SAnta Fe,9,De 35 a 44 anos,1
82,SAnta Fe,9,De 35 a 44 anos,1
82,SAnta Fe,9,De 35 a 44 anos,2
82,SAnta Fe,9,De 35 a 44 anos,1
82,SAnta Fe,10,De 45 a 65 anos,1
82,SAnta Fe,10,De 45 a 65 anos,2
82,SAnta Fe,10,De 45 a 65 anos,1
82,SAnta Fe,10,De 45 a 65 anos,4
82,SAnta Fe,10,De 45 a 65 anos,1
82,SAnta Fe,10,De 45 a 65 anos,1
82,SAnta Fe,11,Mayores de 65 anos,1
82,SAnta Fe,11,Mayores de 65 anos,1
82,SAnta Fe,11,Mayores de 65 anos,2
82,SAnta Fe,11,Mayores de 65 anos,1
82,SAnta Fe,11,Mayores de 65 anos,1
90,Tucumán,6,De 10 a 14 anos,1
90,Tucumán,6,De 10 a 14 anos,1
90,Tucumán,6,De 10 a 14 anos,1
90,Tucumán,7,De 15 a 19 anos,1
90,Tucumán,7,De 15 a 19 anos,1
90,Tucumán,9,De 25 a 34 anos,1
90,Tucumán,9,De 25 a 34 anos,1
90,Tucumán,9,De 25 a 34 anos,2
90,Tucumán,9,De 25 a 34 anos,1
90,Tucumán,9,De 35 a 44 anos,1
90,Tucumán,9,De 35 a 44 anos,1
90,Tucumán,9,De 35 a 44 anos,1
90,Tucumán,9,De 35 a 44 anos,1
90,Tucumán,9,De 35 a 44 anos,1
90,Tucumán,10,De 45 a 65 anos,1
90,Tucumán,10,De 45 a 65 anos,1
90,Tucumán,10,De 45 a 65 anos,1
90,Tucumán,10,De 45 a 65 anos,1
90,Tucumán,10,De 45 a 65 anos,1
90,Tucumán,10,De 45 a 65 anos,1
90,Tucumán,11,Mayores de 65 anos,1
90,Tucumán,11,Mayores de 65 anos,1
